atividades/processador_programavel/simulation/qsim/processador_programavel.msim.vcd
$comment
	File created using the following command:
		vcd file processador_programavel.msim.vcd -direction
$end
$date
	Sat Nov 23 03:11:50 2019
$end
$version
	ModelSim Version 10.1d
$end
$timescale
	1ps
$end
$scope module registrador_de_instrucao_vlg_vec_tst $end
$var reg 1 ! carregar $end
$var reg 16 " dado_de_entrada [15:0] $end
$var wire 1 # memoria [15] $end
$var wire 1 $ memoria [14] $end
$var wire 1 % memoria [13] $end
$var wire 1 & memoria [12] $end
$var wire 1 ' memoria [11] $end
$var wire 1 ( memoria [10] $end
$var wire 1 ) memoria [9] $end
$var wire 1 * memoria [8] $end
$var wire 1 + memoria [7] $end
$var wire 1 , memoria [6] $end
$var wire 1 - memoria [5] $end
$var wire 1 . memoria [4] $end
$var wire 1 / memoria [3] $end
$var wire 1 0 memoria [2] $end
$var wire 1 1 memoria [1] $end
$var wire 1 2 memoria [0] $end
$var wire 1 3 sampler $end
$scope module i1 $end
$var wire 1 4 gnd $end
$var wire 1 5 vcc $end
$var wire 1 6 unknown $end
$var tri1 1 7 devclrn $end
$var tri1 1 8 devpor $end
$var tri1 1 9 devoe $end
$var wire 1 : carregar~combout $end
$var wire 1 ; carregar~clkctrl_outclk $end
$var wire 1 < memoria[0]~reg0_regout $end
$var wire 1 = memoria[1]~reg0feeder_combout $end
$var wire 1 > memoria[1]~reg0_regout $end
$var wire 1 ? memoria[2]~reg0feeder_combout $end
$var wire 1 @ memoria[2]~reg0_regout $end
$var wire 1 A memoria[3]~reg0feeder_combout $end
$var wire 1 B memoria[3]~reg0_regout $end
$var wire 1 C memoria[4]~reg0feeder_combout $end
$var wire 1 D memoria[4]~reg0_regout $end
$var wire 1 E memoria[5]~reg0_regout $end
$var wire 1 F memoria[6]~reg0_regout $end
$var wire 1 G memoria[7]~reg0feeder_combout $end
$var wire 1 H memoria[7]~reg0_regout $end
$var wire 1 I memoria[8]~reg0feeder_combout $end
$var wire 1 J memoria[8]~reg0_regout $end
$var wire 1 K memoria[9]~reg0feeder_combout $end
$var wire 1 L memoria[9]~reg0_regout $end
$var wire 1 M memoria[10]~reg0feeder_combout $end
$var wire 1 N memoria[10]~reg0_regout $end
$var wire 1 O memoria[11]~reg0feeder_combout $end
$var wire 1 P memoria[11]~reg0_regout $end
$var wire 1 Q memoria[12]~reg0feeder_combout $end
$var wire 1 R memoria[12]~reg0_regout $end
$var wire 1 S memoria[13]~reg0feeder_combout $end
$var wire 1 T memoria[13]~reg0_regout $end
$var wire 1 U memoria[14]~reg0feeder_combout $end
$var wire 1 V memoria[14]~reg0_regout $end
$var wire 1 W memoria[15]~reg0feeder_combout $end
$var wire 1 X memoria[15]~reg0_regout $end
$var wire 1 Y dado_de_entrada~combout [15] $end
$var wire 1 Z dado_de_entrada~combout [14] $end
$var wire 1 [ dado_de_entrada~combout [13] $end
$var wire 1 \ dado_de_entrada~combout [12] $end
$var wire 1 ] dado_de_entrada~combout [11] $end
$var wire 1 ^ dado_de_entrada~combout [10] $end
$var wire 1 _ dado_de_entrada~combout [9] $end
$var wire 1 ` dado_de_entrada~combout [8] $end
$var wire 1 a dado_de_entrada~combout [7] $end
$var wire 1 b dado_de_entrada~combout [6] $end
$var wire 1 c dado_de_entrada~combout [5] $end
$var wire 1 d dado_de_entrada~combout [4] $end
$var wire 1 e dado_de_entrada~combout [3] $end
$var wire 1 f dado_de_entrada~combout [2] $end
$var wire 1 g dado_de_entrada~combout [1] $end
$var wire 1 h dado_de_entrada~combout [0] $end
$upscope $end
$upscope $end
$enddefinitions $end
#0
$dumpvars
0!
b1111 "
02
01
00
0/
0.
0-
0,
0+
0*
0)
0(
0'
0&
0%
0$
0#
x3
04
15
x6
17
18
19
0:
0;
0<
1=
0>
1?
0@
1A
0B
0C
0D
0E
0F
0G
0H
0I
0J
0K
0L
0M
0N
0O
0P
0Q
0R
0S
0T
0U
0V
0W
0X
1h
1g
1f
1e
0d
0c
0b
0a
0`
0_
0^
0]
0\
0[
0Z
0Y
$end
#10000
1!
1:
1;
03
1B
1@
1>
1<
1/
10
11
12
#20000
0!
0:
0;
13
#30000
1!
1:
1;
03
#40000
0!
0:
0;
13
#50000
1!
1:
1;
03
#60000
0!
0:
0;
13
#70000
1!
1:
1;
03
#80000
0!
0:
0;
13
#90000
1!
1:
1;
03
#100000
0!
0:
0;
13
#110000
1!
1:
1;
03
#120000
0!
0:
0;
13
#130000
1!
1:
1;
03
#140000
0!
0:
0;
13
#150000
1!
1:
1;
03
#160000
0!
0:
0;
13
#170000
1!
1:
1;
03
#180000
0!
0:
0;
13
#190000
1!
1:
1;
03
#200000
0!
0:
0;
13
#210000
1!
1:
1;
03
#220000
0!
0:
0;
13
#230000
1!
1:
1;
03
#240000
0!
0:
0;
13
#250000
1!
1:
1;
03
#260000
0!
0:
0;
13
#270000
1!
1:
1;
03
#280000
0!
0:
0;
13
#290000
1!
1:
1;
03
#300000
0!
0:
0;
13
#310000
1!
1:
1;
03
#320000
0!
0:
0;
13
#330000
1!
1:
1;
03
#340000
0!
0:
0;
13
#350000
1!
1:
1;
03
#360000
0!
0:
0;
13
#370000
1!
1:
1;
03
#380000
0!
0:
0;
13
#390000
1!
1:
1;
03
#400000
0!
0:
0;
13
#410000
1!
1:
1;
03
#420000
0!
0:
0;
13
#430000
1!
1:
1;
03
#440000
0!
0:
0;
13
#450000
1!
1:
1;
03
#460000
0!
0:
0;
13
#470000
1!
1:
1;
03
#480000
0!
0:
0;
13
#490000
1!
1:
1;
03
#500000
0!
0:
0;
13
#510000
1!
1:
1;
03
#520000
0!
0:
0;
13
#530000
1!
1:
1;
03
#540000
0!
0:
0;
13
#550000
1!
1:
1;
03
#560000
0!
0:
0;
13
#570000
1!
1:
1;
03
#580000
0!
0:
0;
13
#590000
1!
1:
1;
03
#600000
0!
0:
0;
13
#610000
1!
1:
1;
03
#620000
0!
0:
0;
13
#630000
1!
1:
1;
03
#640000
0!
0:
0;
13
#650000
1!
1:
1;
03
#660000
0!
0:
0;
13
#670000
1!
1:
1;
03
#680000
0!
0:
0;
13
#690000
1!
1:
1;
03
#700000
0!
0:
0;
13
#710000
1!
1:
1;
03
#720000
0!
0:
0;
13
#730000
1!
1:
1;
03
#740000
0!
0:
0;
13
#750000
1!
1:
1;
03
#760000
0!
0:
0;
13
#770000
1!
1:
1;
03
#780000
0!
0:
0;
13
#790000
1!
1:
1;
03
#800000
0!
0:
0;
13
#810000
1!
1:
1;
03
#820000
0!
0:
0;
13
#830000
1!
1:
1;
03
#840000
0!
0:
0;
13
#850000
1!
1:
1;
03
#860000
0!
0:
0;
13
#870000
1!
1:
1;
03
#880000
0!
0:
0;
13
#890000
1!
1:
1;
03
#900000
0!
0:
0;
13
#910000
1!
1:
1;
03
#920000
0!
0:
0;
13
#930000
1!
1:
1;
03
#940000
0!
0:
0;
13
#950000
1!
1:
1;
03
#960000
0!
0:
0;
13
#970000
1!
1:
1;
03
#980000
0!
0:
0;
13
#990000
1!
1:
1;
03
