aula/set_clock/simulation/qsim/set_clock.msim.vcd
$comment
	File created using the following command:
		vcd file set_clock.msim.vcd -direction
$end
$date
	Fri Sep 27 16:58:19 2019
$end
$version
	ModelSim Version 10.1d
$end
$timescale
	1ps
$end
$scope module set_clock_vlg_vec_tst $end
$var reg 1 ! clk_in $end
$var wire 1 " clk_out $end
$var wire 1 # contador [7] $end
$var wire 1 $ contador [6] $end
$var wire 1 % contador [5] $end
$var wire 1 & contador [4] $end
$var wire 1 ' contador [3] $end
$var wire 1 ( contador [2] $end
$var wire 1 ) contador [1] $end
$var wire 1 * contador [0] $end
$var wire 1 + sampler $end
$scope module i1 $end
$var wire 1 , gnd $end
$var wire 1 - vcc $end
$var wire 1 . unknown $end
$var tri1 1 / devclrn $end
$var tri1 1 0 devpor $end
$var tri1 1 1 devoe $end
$var wire 1 2 Add0~0_combout $end
$var wire 1 3 Add0~2_combout $end
$var wire 1 4 Add0~5 $end
$var wire 1 5 Add0~6_combout $end
$var wire 1 6 Add0~7 $end
$var wire 1 7 Add0~8_combout $end
$var wire 1 8 Add0~9 $end
$var wire 1 9 Add0~10_combout $end
$var wire 1 : Add0~11 $end
$var wire 1 ; Add0~12_combout $end
$var wire 1 < Add0~13 $end
$var wire 1 = Add0~14_combout $end
$var wire 1 > clk_in~combout $end
$var wire 1 ? contador~4_combout $end
$var wire 1 @ contador[5]~reg0_regout $end
$var wire 1 A contador~5_combout $end
$var wire 1 B contador[6]~reg0_regout $end
$var wire 1 C contador~6_combout $end
$var wire 1 D contador[7]~reg0_regout $end
$var wire 1 E Equal0~1_combout $end
$var wire 1 F contador~2_combout $end
$var wire 1 G contador[3]~reg0_regout $end
$var wire 1 H contador~0_combout $end
$var wire 1 I contador[0]~reg0_regout $end
$var wire 1 J Add0~1 $end
$var wire 1 K Add0~3 $end
$var wire 1 L Add0~4_combout $end
$var wire 1 M contador[2]~reg0_regout $end
$var wire 1 N Equal0~0_combout $end
$var wire 1 O clk_out~0_combout $end
$var wire 1 P clk_out~reg0_regout $end
$var wire 1 Q contador~1_combout $end
$var wire 1 R contador[1]~reg0_regout $end
$var wire 1 S contador~3_combout $end
$var wire 1 T contador[4]~reg0_regout $end
$upscope $end
$upscope $end
$enddefinitions $end
#0
$dumpvars
0!
0"
0*
0)
0(
0'
0&
0%
0$
0#
x+
0,
1-
x.
1/
10
11
12
03
04
05
16
07
08
09
1:
0;
0<
0=
0>
0?
0@
0A
0B
0C
0D
0E
0F
0G
1H
0I
0J
1K
0L
0M
0N
0O
0P
0Q
0R
0S
0T
$end
#10000
1!
1>
0+
1I
1J
02
1*
13
0H
1Q
#20000
0!
0>
1+
#30000
1!
1>
0+
1R
0I
0K
03
0J
12
1)
0*
1L
0Q
1K
13
1H
0L
1Q
#40000
0!
0>
1+
#50000
1!
1>
0+
1I
1J
02
1*
0K
03
0H
1L
0Q
#60000
0!
0>
1+
#70000
1!
1>
0+
0R
1M
0I
1K
13
14
0L
0J
12
0)
1(
0*
04
1L
1Q
15
03
1H
05
1F
0Q
0F
#80000
0!
0>
1+
#90000
1!
1>
0+
1I
1J
02
1*
13
0H
1Q
#100000
0!
0>
1+
#110000
1!
1>
0+
1R
0I
0K
03
0J
12
1)
0*
14
0L
0Q
1K
13
1H
15
04
1L
1Q
1F
05
0F
#120000
0!
0>
1+
#130000
1!
1>
0+
1I
1J
02
1*
0K
03
0H
14
0L
0Q
15
1F
#140000
0!
0>
1+
#150000
1!
1>
0+
0R
0M
0I
1G
1K
13
04
1L
0J
12
06
05
0)
0(
0*
1'
0L
1Q
16
15
03
1H
17
0F
07
1F
0Q
1S
0S
#160000
0!
0>
1+
#170000
1!
1>
0+
1I
1J
02
1*
13
0H
1Q
#180000
0!
0>
1+
#190000
1!
1>
0+
1R
0I
1N
0K
03
0J
12
1)
0*
0Q
1H
1L
1K
13
0L
1Q
#200000
0!
0>
1+
#210000
1!
1>
0+
1I
0N
1J
02
1*
0H
0K
03
1L
0Q
#220000
0!
0>
1+
#230000
1!
1>
0+
0R
1M
0I
1K
13
14
0L
0J
12
0)
1(
0*
04
1L
1Q
06
05
03
1H
16
15
17
0F
0Q
07
1F
1S
0S
#240000
0!
0>
1+
#250000
1!
1>
0+
1I
1J
02
1*
13
0H
1Q
#260000
0!
0>
1+
#270000
1!
1>
0+
1R
0I
0K
03
0J
12
1)
0*
14
0L
0Q
1K
13
1H
06
05
04
1L
1Q
17
0F
16
15
1S
07
1F
0S
#280000
0!
0>
1+
#290000
1!
1>
0+
1I
1J
02
1*
0K
03
0H
14
0L
0Q
06
05
17
0F
1S
#300000
0!
0>
1+
#310000
1!
1>
0+
1T
0R
0M
0I
0G
18
07
1K
13
04
1L
0J
12
16
15
1&
0)
0(
0*
0'
19
0S
0L
1Q
05
03
1H
08
17
1F
1?
0F
0Q
09
1S
0?
#320000
0!
0>
1+
#330000
1!
1>
0+
1I
1J
02
1*
13
0H
1Q
#340000
0!
0>
1+
#350000
1!
1>
0+
1R
0I
0K
03
0J
12
1)
0*
1L
0Q
1K
13
1H
0L
1Q
#360000
0!
0>
1+
#370000
1!
1>
0+
1I
1J
02
1*
0K
03
0H
1L
0Q
#380000
0!
0>
1+
#390000
1!
1>
0+
0R
1M
0I
1K
13
14
0L
0J
12
0)
1(
0*
04
1L
1Q
15
03
1H
05
1F
0Q
0F
#400000
0!
0>
1+
#410000
1!
1>
0+
1I
1J
02
1*
13
0H
1Q
#420000
0!
0>
1+
#430000
1!
1>
0+
1R
0I
0K
03
0J
12
1)
0*
14
0L
0Q
1K
13
1H
15
04
1L
1Q
1F
05
0F
#440000
0!
0>
1+
#450000
1!
1>
0+
1I
1J
02
1*
0K
03
0H
14
0L
0Q
15
1F
#460000
0!
0>
1+
#470000
1!
1>
0+
0R
0M
0I
1G
1K
13
04
1L
0J
12
06
05
0)
0(
0*
1'
0L
1Q
16
15
03
1H
18
07
0F
08
17
1F
0Q
19
0S
09
1S
1?
0?
#480000
0!
0>
1+
#490000
1!
1>
0+
1I
1J
02
1*
13
0H
1Q
#500000
0!
0>
1+
#510000
1!
1>
0+
1R
0I
1N
0K
03
0J
12
1)
0*
0Q
1H
1L
1K
13
0L
1Q
#520000
0!
0>
1+
#530000
1!
1>
0+
1I
0N
1J
02
1*
0H
0K
03
1L
0Q
#540000
0!
0>
1+
#550000
1!
1>
0+
0R
1M
0I
1K
13
14
0L
0J
12
0)
1(
0*
04
1L
1Q
06
05
03
1H
16
15
18
07
0F
0Q
08
17
1F
19
0S
09
1S
1?
0?
#560000
0!
0>
1+
#570000
1!
1>
0+
1I
1J
02
1*
13
0H
1Q
#580000
0!
0>
1+
#590000
1!
1>
0+
1R
0I
0K
03
0J
12
1)
0*
14
0L
0Q
1K
13
1H
06
05
04
1L
1Q
18
07
0F
16
15
19
0S
08
17
1F
1?
09
1S
0?
#600000
0!
0>
1+
#610000
1!
1>
0+
1I
1J
02
1*
0K
03
0H
14
0L
0Q
06
05
18
07
0F
19
0S
1?
#620000
0!
0>
1+
#630000
1!
1>
0+
0T
0R
0M
0I
0G
1@
08
17
1K
13
04
1L
0J
12
16
15
0:
09
0&
0)
0(
0*
0'
1%
1:
19
1S
0L
1Q
05
03
1H
07
1F
1;
0?
0;
1?
0F
0Q
0S
1A
0A
#640000
0!
0>
1+
#650000
1!
1>
0+
1I
1J
02
1*
13
0H
1Q
#660000
0!
0>
1+
#670000
1!
1>
0+
1R
0I
0K
03
0J
12
1)
0*
1L
0Q
1K
13
1H
0L
1Q
#680000
0!
0>
1+
#690000
1!
1>
0+
1I
1J
02
1*
0K
03
0H
1L
0Q
#700000
0!
0>
1+
#710000
1!
1>
0+
0R
1M
0I
1K
13
14
0L
0J
12
0)
1(
0*
04
1L
1Q
15
03
1H
05
1F
0Q
0F
#720000
0!
0>
1+
#730000
1!
1>
0+
1I
1J
02
1*
13
0H
1Q
#740000
0!
0>
1+
#750000
1!
1>
0+
1R
0I
0K
03
0J
12
1)
0*
14
0L
0Q
1K
13
1H
15
04
1L
1Q
1F
05
0F
#760000
0!
0>
1+
#770000
1!
1>
0+
1I
1J
02
1*
0K
03
0H
14
0L
0Q
15
1F
#780000
0!
0>
1+
#790000
1!
1>
0+
0R
0M
0I
1G
1K
13
04
1L
0J
12
06
05
0)
0(
0*
1'
0L
1Q
16
15
03
1H
17
0F
07
1F
0Q
1S
0S
#800000
0!
0>
1+
#810000
1!
1>
0+
1I
1J
02
1*
13
0H
1Q
#820000
0!
0>
1+
#830000
1!
1>
0+
1R
0I
1N
0K
03
0J
12
1)
0*
0Q
1H
1L
1K
13
0L
1Q
#840000
0!
0>
1+
#850000
1!
1>
0+
1I
0N
1J
02
1*
0H
0K
03
1L
0Q
#860000
0!
0>
1+
#870000
1!
1>
0+
0R
1M
0I
1K
13
14
0L
0J
12
0)
1(
0*
04
1L
1Q
06
05
03
1H
16
15
17
0F
0Q
07
1F
1S
0S
#880000
0!
0>
1+
#890000
1!
1>
0+
1I
1J
02
1*
13
0H
1Q
#900000
0!
0>
1+
#910000
1!
1>
0+
1R
0I
0K
03
0J
12
1)
0*
14
0L
0Q
1K
13
1H
06
05
04
1L
1Q
17
0F
16
15
1S
07
1F
0S
#920000
0!
0>
1+
#930000
1!
1>
0+
1I
1J
02
1*
0K
03
0H
14
0L
0Q
06
05
17
0F
1S
#940000
0!
0>
1+
#950000
1!
1>
0+
1T
0R
0M
0I
0G
18
07
1K
13
04
1L
0J
12
16
15
1&
0)
0(
0*
0'
0:
09
0S
0L
1Q
05
03
1H
08
17
1F
1;
0?
0F
0Q
1:
19
1S
1A
0;
1?
0A
#960000
0!
0>
1+
#970000
1!
1>
0+
1I
1J
02
1*
13
0H
1Q
#980000
0!
0>
1+
#990000
1!
1>
0+
1R
0I
0K
03
0J
12
1)
0*
1L
0Q
1K
13
1H
0L
1Q
#1000000
0!
0>
1+
#1010000
1!
1>
0+
1I
1J
02
1*
0K
03
0H
1L
0Q
#1020000
0!
0>
1+
#1030000
1!
1>
0+
0R
1M
0I
1K
13
14
0L
0J
12
0)
1(
0*
04
1L
1Q
15
03
1H
05
1F
0Q
0F
#1040000
0!
0>
1+
#1050000
1!
1>
0+
1I
1J
02
1*
13
0H
1Q
#1060000
0!
0>
1+
#1070000
1!
1>
0+
1R
0I
0K
03
0J
12
1)
0*
14
0L
0Q
1K
13
1H
15
04
1L
1Q
1F
05
0F
#1080000
0!
0>
1+
#1090000
1!
1>
0+
1I
1J
02
1*
0K
03
0H
14
0L
0Q
15
1F
#1100000
0!
0>
1+
#1110000
1!
1>
0+
0R
0M
0I
1G
1K
13
04
1L
0J
12
06
05
0)
0(
0*
1'
0L
1Q
16
15
03
1H
18
07
0F
08
17
1F
0Q
0:
09
0S
1:
19
1S
1;
0?
0;
1?
1A
0A
#1120000
0!
0>
1+
#1130000
1!
1>
0+
1I
1J
02
1*
13
0H
1Q
#1140000
0!
0>
1+
#1150000
1!
1>
0+
1R
0I
1N
0K
03
0J
12
1)
0*
0Q
1H
1L
1K
13
0L
1Q
#1160000
0!
0>
1+
#1170000
1!
1>
0+
1I
0N
1J
02
1*
0H
0K
03
1L
0Q
#1180000
0!
0>
1+
#1190000
1!
1>
0+
0R
1M
0I
1K
13
14
0L
0J
12
0)
1(
0*
04
1L
1Q
06
05
03
1H
16
15
18
07
0F
0Q
08
17
1F
0:
09
0S
1:
19
1S
1;
0?
0;
1?
1A
0A
#1200000
0!
0>
1+
#1210000
1!
1>
0+
1I
1J
02
1*
13
0H
1Q
#1220000
0!
0>
1+
#1230000
1!
1>
0+
1R
0I
0K
03
0J
12
1)
0*
14
0L
0Q
1K
13
1H
06
05
04
1L
1Q
18
07
0F
16
15
0:
09
0S
08
17
1F
1;
0?
1:
19
1S
1A
0;
1?
0A
#1240000
0!
0>
1+
#1250000
1!
1>
0+
1I
1J
02
1*
0K
03
0H
14
0L
0Q
06
05
18
07
0F
0:
09
0S
1;
0?
1A
#1260000
0!
0>
1+
#1270000
1!
1>
0+
0T
0R
0M
0I
0G
1B
0@
08
17
1K
13
04
1L
0J
12
16
15
1<
0;
1:
19
0&
0)
0(
0*
0'
1$
0%
09
1S
0L
1Q
05
03
1H
07
1F
1=
0A
0<
1;
1?
0?
0F
0Q
0S
1C
0=
1A
0C
#1280000
0!
0>
1+
#1290000
1!
1>
0+
1I
1J
02
1*
13
0H
1Q
#1300000
0!
0>
1+
#1310000
1!
1>
0+
1R
0I
0K
03
0J
12
1)
0*
1L
0Q
1K
13
1H
0L
1Q
#1320000
0!
0>
1+
#1330000
1!
1>
0+
1I
1J
02
1*
0K
03
0H
1L
0Q
#1340000
0!
0>
1+
#1350000
1!
1>
0+
0R
1M
0I
1K
13
14
0L
0J
12
0)
1(
0*
04
1L
1Q
15
03
1H
05
1F
0Q
0F
#1360000
0!
0>
1+
#1370000
1!
1>
0+
1I
1J
02
1*
13
0H
1Q
#1380000
0!
0>
1+
#1390000
1!
1>
0+
1R
0I
0K
03
0J
12
1)
0*
14
0L
0Q
1K
13
1H
15
04
1L
1Q
1F
05
0F
#1400000
0!
0>
1+
#1410000
1!
1>
0+
1I
1J
02
1*
0K
03
0H
14
0L
0Q
15
1F
#1420000
0!
0>
1+
#1430000
1!
1>
0+
0R
0M
0I
1G
1K
13
04
1L
0J
12
06
05
0)
0(
0*
1'
0L
1Q
16
15
03
1H
17
0F
07
1F
0Q
1S
0S
#1440000
0!
0>
1+
#1450000
1!
1>
0+
1I
1J
02
1*
13
0H
1Q
#1460000
0!
0>
1+
#1470000
1!
1>
0+
1R
0I
1N
0K
03
0J
12
1)
0*
0Q
1H
1L
1K
13
0L
1Q
#1480000
0!
0>
1+
#1490000
1!
1>
0+
1I
0N
1J
02
1*
0H
0K
03
1L
0Q
#1500000
0!
0>
1+
#1510000
1!
1>
0+
0R
1M
0I
1K
13
14
0L
0J
12
0)
1(
0*
04
1L
1Q
06
05
03
1H
16
15
17
0F
0Q
07
1F
1S
0S
#1520000
0!
0>
1+
#1530000
1!
1>
0+
1I
1J
02
1*
13
0H
1Q
#1540000
0!
0>
1+
#1550000
1!
1>
0+
1R
0I
0K
03
0J
12
1)
0*
14
0L
0Q
1K
13
1H
06
05
04
1L
1Q
17
0F
16
15
1S
07
1F
0S
#1560000
0!
0>
1+
#1570000
1!
1>
0+
1I
1J
02
1*
0K
03
0H
14
0L
0Q
06
05
17
0F
1S
#1580000
0!
0>
1+
#1590000
1!
1>
0+
1T
0R
0M
0I
0G
18
07
1K
13
04
1L
0J
12
16
15
1&
0)
0(
0*
0'
19
0S
0L
1Q
05
03
1H
08
17
1F
1?
0F
0Q
09
1S
0?
#1600000
0!
0>
1+
#1610000
1!
1>
0+
1I
1J
02
1*
13
0H
1Q
#1620000
0!
0>
1+
#1630000
1!
1>
0+
1R
0I
0K
03
0J
12
1)
0*
1L
0Q
1K
13
1H
0L
1Q
#1640000
0!
0>
1+
#1650000
1!
1>
0+
1I
1J
02
1*
0K
03
0H
1L
0Q
#1660000
0!
0>
1+
#1670000
1!
1>
0+
0R
1M
0I
1K
13
14
0L
0J
12
0)
1(
0*
04
1L
1Q
15
03
1H
05
1F
0Q
0F
#1680000
0!
0>
1+
#1690000
1!
1>
0+
1I
1J
02
1*
13
0H
1Q
#1700000
0!
0>
1+
#1710000
1!
1>
0+
1R
0I
0K
03
0J
12
1)
0*
14
0L
0Q
1K
13
1H
15
04
1L
1Q
1F
05
0F
#1720000
0!
0>
1+
#1730000
1!
1>
0+
1I
1J
02
1*
0K
03
0H
14
0L
0Q
15
1F
#1740000
0!
0>
1+
#1750000
1!
1>
0+
0R
0M
0I
1G
1K
13
04
1L
0J
12
06
05
0)
0(
0*
1'
0L
1Q
16
15
03
1H
18
07
0F
08
17
1F
0Q
19
0S
09
1S
1?
0?
#1760000
0!
0>
1+
#1770000
1!
1>
0+
1I
1J
02
1*
13
0H
1Q
#1780000
0!
0>
1+
#1790000
1!
1>
0+
1R
0I
1N
0K
03
0J
12
1)
0*
0Q
1H
1L
1K
13
0L
1Q
#1800000
0!
0>
1+
#1810000
1!
1>
0+
1I
0N
1J
02
1*
0H
0K
03
1L
0Q
#1820000
0!
0>
1+
#1830000
1!
1>
0+
0R
1M
0I
1K
13
14
0L
0J
12
0)
1(
0*
04
1L
1Q
06
05
03
1H
16
15
18
07
0F
0Q
08
17
1F
19
0S
09
1S
1?
0?
#1840000
0!
0>
1+
#1850000
1!
1>
0+
1I
1J
02
1*
13
0H
1Q
#1860000
0!
0>
1+
#1870000
1!
1>
0+
1R
0I
0K
03
0J
12
1)
0*
14
0L
0Q
1K
13
1H
06
05
04
1L
1Q
18
07
0F
16
15
19
0S
08
17
1F
1?
09
1S
0?
#1880000
0!
0>
1+
#1890000
1!
1>
0+
1I
1J
02
1*
0K
03
0H
14
0L
0Q
06
05
18
07
0F
19
0S
1?
#1900000
0!
0>
1+
#1910000
1!
1>
0+
0T
0R
0M
0I
0G
1@
08
17
1K
13
04
1L
0J
12
16
15
0:
09
0&
0)
0(
0*
0'
1%
1:
19
1S
0L
1Q
05
03
1H
07
1F
1<
0;
0?
0<
1;
1?
0F
0Q
0S
1=
0A
0=
1A
1C
0C
#1920000
0!
0>
1+
#1930000
1!
1>
0+
1I
1J
02
1*
13
0H
1Q
#1940000
0!
0>
1+
#1950000
1!
1>
0+
1R
0I
0K
03
0J
12
1)
0*
1L
0Q
1K
13
1H
0L
1Q
#1960000
0!
0>
1+
#1970000
1!
1>
0+
1I
1J
02
1*
0K
03
0H
1L
0Q
#1980000
0!
0>
1+
#1990000
1!
1>
0+
0R
1M
0I
1K
13
14
0L
0J
12
0)
1(
0*
04
1L
1Q
15
03
1H
05
1F
0Q
0F
#2000000
0!
0>
1+
#2010000
1!
1>
0+
1I
1J
02
1*
13
0H
1Q
#2020000
0!
0>
1+
#2030000
1!
1>
0+
1R
0I
0K
03
0J
12
1)
0*
14
0L
0Q
1K
13
1H
15
04
1L
1Q
1F
05
0F
#2040000
0!
0>
1+
#2050000
1!
1>
0+
1I
1J
02
1*
0K
03
0H
14
0L
0Q
15
1F
#2060000
0!
0>
1+
#2070000
1!
1>
0+
0R
0M
0I
1G
1K
13
04
1L
0J
12
06
05
0)
0(
0*
1'
0L
1Q
16
15
03
1H
17
0F
07
1F
0Q
1S
0S
#2080000
0!
0>
1+
#2090000
1!
1>
0+
1I
1J
02
1*
13
0H
1Q
#2100000
0!
0>
1+
#2110000
1!
1>
0+
1R
0I
1N
0K
03
0J
12
1)
0*
0Q
1H
1L
1K
13
0L
1Q
#2120000
0!
0>
1+
#2130000
1!
1>
0+
1I
0N
1J
02
1*
0H
0K
03
1L
0Q
#2140000
0!
0>
1+
#2150000
1!
1>
0+
0R
1M
0I
1K
13
14
0L
0J
12
0)
1(
0*
04
1L
1Q
06
05
03
1H
16
15
17
0F
0Q
07
1F
1S
0S
#2160000
0!
0>
1+
#2170000
1!
1>
0+
1I
1J
02
1*
13
0H
1Q
#2180000
0!
0>
1+
#2190000
1!
1>
0+
1R
0I
0K
03
0J
12
1)
0*
14
0L
0Q
1K
13
1H
06
05
04
1L
1Q
17
0F
16
15
1S
07
1F
0S
#2200000
0!
0>
1+
#2210000
1!
1>
0+
1I
1J
02
1*
0K
03
0H
14
0L
0Q
06
05
17
0F
1S
#2220000
0!
0>
1+
#2230000
1!
1>
0+
1T
0R
0M
0I
0G
18
07
1K
13
04
1L
0J
12
16
15
1&
0)
0(
0*
0'
0:
09
0S
0L
1Q
05
03
1H
08
17
1F
1<
0;
0?
0F
0Q
1:
19
1S
1=
0A
0<
1;
1?
1C
0=
1A
0C
#2240000
0!
0>
1+
#2250000
1!
1>
0+
1I
1J
02
1*
13
0H
1Q
#2260000
0!
0>
1+
#2270000
1!
1>
0+
1R
0I
0K
03
0J
12
1)
0*
1L
0Q
1K
13
1H
0L
1Q
#2280000
0!
0>
1+
#2290000
1!
1>
0+
1I
1J
02
1*
0K
03
0H
1L
0Q
#2300000
0!
0>
1+
#2310000
1!
1>
0+
0R
1M
0I
1K
13
14
0L
0J
12
0)
1(
0*
04
1L
1Q
15
03
1H
05
1F
0Q
0F
#2320000
0!
0>
1+
#2330000
1!
1>
0+
1I
1J
02
1*
13
0H
1Q
#2340000
0!
0>
1+
#2350000
1!
1>
0+
1R
0I
0K
03
0J
12
1)
0*
14
0L
0Q
1K
13
1H
15
04
1L
1Q
1F
05
0F
#2360000
0!
0>
1+
#2370000
1!
1>
0+
1I
1J
02
1*
0K
03
0H
14
0L
0Q
15
1F
#2380000
0!
0>
1+
#2390000
1!
1>
0+
0R
0M
0I
1G
1K
13
04
1L
0J
12
06
05
0)
0(
0*
1'
0L
1Q
16
15
03
1H
18
07
0F
08
17
1F
0Q
0:
09
0S
1:
19
1S
1<
0;
0?
0<
1;
1?
1=
0A
0=
1A
1C
0C
#2400000
0!
0>
1+
#2410000
1!
1>
0+
1I
1J
02
1*
13
0H
1Q
#2420000
0!
0>
1+
#2430000
1!
1>
0+
1R
0I
1N
0K
03
0J
12
1)
0*
0Q
1H
1L
1K
13
0L
1Q
#2440000
0!
0>
1+
#2450000
1!
1>
0+
1I
0N
1J
02
1*
0H
0K
03
1L
0Q
#2460000
0!
0>
1+
#2470000
1!
1>
0+
0R
1M
0I
1K
13
14
0L
0J
12
0)
1(
0*
04
1L
1Q
06
05
03
1H
16
15
18
07
0F
0Q
08
17
1F
0:
09
0S
1:
19
1S
1<
0;
0?
0<
1;
1?
1=
0A
0=
1A
1C
0C
#2480000
0!
0>
1+
#2490000
1!
1>
0+
1I
1J
02
1*
13
0H
1Q
#2500000
0!
0>
1+
#2510000
1!
1>
0+
1R
0I
0K
03
0J
12
1)
0*
14
0L
0Q
1K
13
1H
06
05
04
1L
1Q
18
07
0F
16
15
0:
09
0S
08
17
1F
1<
0;
0?
1:
19
1S
1=
0A
0<
1;
1?
1C
0=
1A
0C
#2520000
0!
0>
1+
#2530000
1!
1>
0+
1I
1J
02
1*
0K
03
0H
14
0L
0Q
06
05
18
07
0F
0:
09
0S
1<
0;
0?
1=
0A
1C
#2540000
0!
0>
1+
#2550000
1!
1>
0+
0T
0R
0M
0I
0G
1D
0B
0@
08
17
1K
13
04
1L
0J
12
16
15
0=
0<
1;
1:
19
0&
0)
0(
0*
0'
1#
0$
0%
09
1S
0L
1Q
05
03
1H
07
1F
0C
1=
1A
0;
1?
0?
0F
0Q
0S
1C
0A
#2560000
0!
0>
1+
#2570000
1!
1>
0+
1I
1J
02
1*
13
0H
1Q
#2580000
0!
0>
1+
#2590000
1!
1>
0+
1R
0I
0K
03
0J
12
1)
0*
1L
0Q
1K
13
1H
0L
1Q
#2600000
0!
0>
1+
#2610000
1!
1>
0+
1I
1J
02
1*
0K
03
0H
1L
0Q
#2620000
0!
0>
1+
#2630000
1!
1>
0+
0R
1M
0I
1K
13
14
0L
0J
12
0)
1(
0*
04
1L
1Q
15
03
1H
05
1F
0Q
0F
#2640000
0!
0>
1+
#2650000
1!
1>
0+
1I
1J
02
1*
13
0H
1Q
#2660000
0!
0>
1+
#2670000
1!
1>
0+
1R
0I
0K
03
0J
12
1)
0*
14
0L
0Q
1K
13
1H
15
04
1L
1Q
1F
05
0F
#2680000
0!
0>
1+
#2690000
1!
1>
0+
1I
1J
02
1*
0K
03
0H
14
0L
0Q
15
1F
#2700000
0!
0>
1+
#2710000
1!
1>
0+
0R
0M
0I
1G
1K
13
04
1L
0J
12
06
05
0)
0(
0*
1'
0L
1Q
16
15
03
1H
17
0F
07
1F
0Q
1S
0S
#2720000
0!
0>
1+
#2730000
1!
1>
0+
1I
1J
02
1*
13
0H
1Q
#2740000
0!
0>
1+
#2750000
1!
1>
0+
1R
0I
1N
0K
03
0J
12
1)
0*
0Q
1H
1L
1K
13
0L
1Q
#2760000
0!
0>
1+
#2770000
1!
1>
0+
1I
0N
1J
02
1*
0H
0K
03
1L
0Q
#2780000
0!
0>
1+
#2790000
1!
1>
0+
0R
1M
0I
1K
13
14
0L
0J
12
0)
1(
0*
04
1L
1Q
06
05
03
1H
16
15
17
0F
0Q
07
1F
1S
0S
#2800000
0!
0>
1+
#2810000
1!
1>
0+
1I
1J
02
1*
13
0H
1Q
#2820000
0!
0>
1+
#2830000
1!
1>
0+
1R
0I
0K
03
0J
12
1)
0*
14
0L
0Q
1K
13
1H
06
05
04
1L
1Q
17
0F
16
15
1S
07
1F
0S
#2840000
0!
0>
1+
#2850000
1!
1>
0+
1I
1J
02
1*
0K
03
0H
14
0L
0Q
06
05
17
0F
1S
#2860000
0!
0>
1+
#2870000
1!
1>
0+
1T
0R
0M
0I
0G
18
07
1K
13
04
1L
0J
12
16
15
1&
0)
0(
0*
0'
19
0S
0L
1Q
05
03
1H
08
17
1F
1?
0F
0Q
09
1S
0?
#2880000
0!
0>
1+
#2890000
1!
1>
0+
1I
1J
02
1*
13
0H
1Q
#2900000
0!
0>
1+
#2910000
1!
1>
0+
1R
0I
0K
03
0J
12
1)
0*
1L
0Q
1K
13
1H
0L
1Q
#2920000
0!
0>
1+
#2930000
1!
1>
0+
1I
1J
02
1*
0K
03
0H
1L
0Q
#2940000
0!
0>
1+
#2950000
1!
1>
0+
0R
1M
0I
1K
13
14
0L
0J
12
0)
1(
0*
04
1L
1Q
15
03
1H
05
1F
0Q
0F
#2960000
0!
0>
1+
#2970000
1!
1>
0+
1I
1J
02
1*
13
0H
1Q
#2980000
0!
0>
1+
#2990000
1!
1>
0+
1R
0I
0K
03
0J
12
1)
0*
14
0L
0Q
1K
13
1H
15
04
1L
1Q
1F
05
0F
#3000000
0!
0>
1+
#3010000
1!
1>
0+
1I
1J
02
1*
0K
03
0H
14
0L
0Q
15
1F
#3020000
0!
0>
1+
#3030000
1!
1>
0+
0R
0M
0I
1G
1K
13
04
1L
0J
12
06
05
0)
0(
0*
1'
0L
1Q
16
15
03
1H
18
07
0F
08
17
1F
0Q
19
0S
09
1S
1?
0?
#3040000
0!
0>
1+
#3050000
1!
1>
0+
1I
1J
02
1*
13
0H
1Q
#3060000
0!
0>
1+
#3070000
1!
1>
0+
1R
0I
1N
0K
03
0J
12
1)
0*
0Q
1H
1L
1K
13
0L
1Q
#3080000
0!
0>
1+
#3090000
1!
1>
0+
1I
0N
1J
02
1*
0H
0K
03
1L
0Q
#3100000
0!
0>
1+
#3110000
1!
1>
0+
0R
1M
0I
1K
13
14
0L
0J
12
0)
1(
0*
04
1L
1Q
06
05
03
1H
16
15
18
07
0F
0Q
08
17
1F
19
0S
09
1S
1?
0?
#3120000
0!
0>
1+
#3130000
1!
1>
0+
1I
1J
02
1*
13
0H
1Q
#3140000
0!
0>
1+
#3150000
1!
1>
0+
1R
0I
0K
03
0J
12
1)
0*
14
0L
0Q
1K
13
1H
06
05
04
1L
1Q
18
07
0F
16
15
19
0S
08
17
1F
1?
09
1S
0?
#3160000
0!
0>
1+
#3170000
1!
1>
0+
1I
1J
02
1*
0K
03
0H
14
0L
0Q
06
05
18
07
0F
19
0S
1?
#3180000
0!
0>
1+
#3190000
1!
1>
0+
0T
0R
0M
0I
0G
1@
08
17
1K
13
04
1L
0J
12
16
15
0:
09
0&
0)
0(
0*
0'
1%
1:
19
1S
0L
1Q
05
03
1H
07
1F
1;
0?
0;
1?
0F
0Q
0S
1A
0A
#3200000
0!
0>
1+
#3210000
1!
1>
0+
1I
1J
02
1*
13
0H
1Q
#3220000
0!
0>
1+
#3230000
1!
1>
0+
1R
0I
0K
03
0J
12
1)
0*
1L
0Q
1K
13
1H
0L
1Q
#3240000
0!
0>
1+
#3250000
1!
1>
0+
1I
1J
02
1*
0K
03
0H
1L
0Q
#3260000
0!
0>
1+
#3270000
1!
1>
0+
0R
1M
0I
1K
13
14
0L
0J
12
0)
1(
0*
04
1L
1Q
15
03
1H
05
1F
0Q
0F
#3280000
0!
0>
1+
#3290000
1!
1>
0+
1I
1J
02
1*
13
0H
1Q
#3300000
0!
0>
1+
#3310000
1!
1>
0+
1R
0I
0K
03
0J
12
1)
0*
14
0L
0Q
1K
13
1H
15
04
1L
1Q
1F
05
0F
#3320000
0!
0>
1+
#3330000
1!
1>
0+
1I
1J
02
1*
0K
03
0H
14
0L
0Q
15
1F
#3340000
0!
0>
1+
#3350000
1!
1>
0+
0R
0M
0I
1G
1K
13
04
1L
0J
12
06
05
0)
0(
0*
1'
0L
1Q
16
15
03
1H
17
0F
07
1F
0Q
1S
0S
#3360000
0!
0>
1+
#3370000
1!
1>
0+
1I
1J
02
1*
13
0H
1Q
#3380000
0!
0>
1+
#3390000
1!
1>
0+
1R
0I
1N
0K
03
0J
12
1)
0*
0Q
1H
1L
1K
13
0L
1Q
#3400000
0!
0>
1+
#3410000
1!
1>
0+
1I
0N
1J
02
1*
0H
0K
03
1L
0Q
#3420000
0!
0>
1+
#3430000
1!
1>
0+
0R
1M
0I
1K
13
14
0L
0J
12
0)
1(
0*
04
1L
1Q
06
05
03
1H
16
15
17
0F
0Q
07
1F
1S
0S
#3440000
0!
0>
1+
#3450000
1!
1>
0+
1I
1J
02
1*
13
0H
1Q
#3460000
0!
0>
1+
#3470000
1!
1>
0+
1R
0I
0K
03
0J
12
1)
0*
14
0L
0Q
1K
13
1H
06
05
04
1L
1Q
17
0F
16
15
1S
07
1F
0S
#3480000
0!
0>
1+
#3490000
1!
1>
0+
1I
1J
02
1*
0K
03
0H
14
0L
0Q
06
05
17
0F
1S
#3500000
0!
0>
1+
#3510000
1!
1>
0+
1T
0R
0M
0I
0G
18
07
1K
13
04
1L
0J
12
16
15
1&
0)
0(
0*
0'
0:
09
0S
0L
1Q
05
03
1H
08
17
1F
1;
0?
0F
0Q
1:
19
1S
1A
0;
1?
0A
#3520000
0!
0>
1+
#3530000
1!
1>
0+
1I
1J
02
1*
13
0H
1Q
