atividades/pacemaker/simulation/qsim/pacemaker.msim.vcd
$comment
	File created using the following command:
		vcd file pacemaker.msim.vcd -direction
$end
$date
	Fri Oct  4 18:03:22 2019
$end
$version
	ModelSim Version 10.1d
$end
$timescale
	1ps
$end
$scope module pacemaker_vlg_vec_tst $end
$var reg 1 ! clock $end
$var reg 1 " recieved_contraction $end
$var wire 1 # make_contraction $end
$var wire 1 $ sampler $end
$scope module i1 $end
$var wire 1 % gnd $end
$var wire 1 & vcc $end
$var wire 1 ' unknown $end
$var tri1 1 ( devclrn $end
$var tri1 1 ) devpor $end
$var tri1 1 * devoe $end
$var wire 1 + timer|milliseconds[1]~13_combout $end
$var wire 1 , timer|milliseconds[4]~19_combout $end
$var wire 1 - recieved_contraction~combout $end
$var wire 1 . clock~combout $end
$var wire 1 / clock~clkctrl_outclk $end
$var wire 1 0 Selector1~0_combout $end
$var wire 1 1 start_timer~regout $end
$var wire 1 2 timer|milliseconds[0]~10_combout $end
$var wire 1 3 timer|Equal0~3_combout $end
$var wire 1 4 timer|milliseconds[6]~23_combout $end
$var wire 1 5 timer|milliseconds[5]~21_combout $end
$var wire 1 6 timer|Equal0~1_combout $end
$var wire 1 7 timer|milliseconds[3]~17_combout $end
$var wire 1 8 timer|Equal0~0_combout $end
$var wire 1 9 timer|milliseconds[1]~12_combout $end
$var wire 1 : timer|milliseconds[0]~11 $end
$var wire 1 ; timer|milliseconds[1]~14 $end
$var wire 1 < timer|milliseconds[2]~15_combout $end
$var wire 1 = timer|milliseconds[2]~16 $end
$var wire 1 > timer|milliseconds[3]~18 $end
$var wire 1 ? timer|milliseconds[4]~20 $end
$var wire 1 @ timer|milliseconds[5]~22 $end
$var wire 1 A timer|milliseconds[6]~24 $end
$var wire 1 B timer|milliseconds[7]~25_combout $end
$var wire 1 C timer|milliseconds[7]~26 $end
$var wire 1 D timer|milliseconds[8]~27_combout $end
$var wire 1 E timer|milliseconds[8]~28 $end
$var wire 1 F timer|milliseconds[9]~29_combout $end
$var wire 1 G timer|Equal0~2_combout $end
$var wire 1 H timer|time_is_over~0_combout $end
$var wire 1 I timer|time_is_over~regout $end
$var wire 1 J next_state~5_combout $end
$var wire 1 K next_state.contraction_state~regout $end
$var wire 1 L Selector2~0_combout $end
$var wire 1 M next_state.reset_timer_state~regout $end
$var wire 1 N Selector3~0_combout $end
$var wire 1 O next_state.wait_state~regout $end
$var wire 1 P Selector0~0_combout $end
$var wire 1 Q make_contraction~reg0_regout $end
$var wire 1 R timer|milliseconds [9] $end
$var wire 1 S timer|milliseconds [8] $end
$var wire 1 T timer|milliseconds [7] $end
$var wire 1 U timer|milliseconds [6] $end
$var wire 1 V timer|milliseconds [5] $end
$var wire 1 W timer|milliseconds [4] $end
$var wire 1 X timer|milliseconds [3] $end
$var wire 1 Y timer|milliseconds [2] $end
$var wire 1 Z timer|milliseconds [1] $end
$var wire 1 [ timer|milliseconds [0] $end
$upscope $end
$upscope $end
$enddefinitions $end
#0
$dumpvars
0!
0"
0#
x$
0%
1&
x'
1(
1)
1*
0+
0,
0-
0.
0/
10
01
12
03
04
05
16
07
08
19
0:
1;
0<
0=
1>
0?
1@
0A
0B
1C
0D
0E
0F
1G
0H
0I
0J
0K
1L
0M
1N
0O
0P
0Q
0[
0Z
0Y
0X
0W
0V
0U
0T
0S
0R
$end
#10000
1!
1.
1/
0$
1O
1M
11
09
#20000
0!
0.
0/
1$
#30000
1!
1.
1/
0$
1[
18
1:
02
1+
#40000
0!
0.
0/
1$
#50000
1!
1.
1/
0$
0[
1Z
0:
12
0;
0+
1;
1+
1<
0<
#60000
0!
0.
0/
1$
#70000
1!
1.
1/
0$
1[
1:
02
0;
0+
1<
#80000
0!
0.
0/
1$
#90000
1!
1.
1/
0$
1Y
0[
0Z
1=
0<
0:
12
1;
1+
17
0+
0=
1<
07
#100000
0!
0.
0/
1$
#110000
1!
1.
1/
0$
1[
1:
02
1+
#120000
0!
0.
0/
1$
#130000
1!
1.
1/
0$
0[
1Z
0:
12
0;
0+
1;
1+
1=
0<
0=
1<
17
07
#140000
0!
0.
0/
1$
#150000
1!
1.
1/
0$
1[
1:
02
0;
0+
1=
0<
17
#160000
0!
0.
0/
1$
#170000
1!
1.
1/
0$
0Y
0[
1X
0Z
0=
1<
0:
12
0>
07
1;
1+
1>
17
0+
1,
0<
0,
#180000
0!
0.
0/
1$
#190000
1!
1.
1/
0$
1[
1:
02
1+
#200000
0!
0.
0/
1$
#210000
1!
1.
1/
0$
0[
1Z
0:
12
0;
0+
1;
1+
1<
0<
#220000
0!
0.
0/
1$
#230000
1!
1.
1/
0$
1[
1:
02
0;
0+
1<
#240000
0!
0.
0/
1$
#250000
1!
1.
1/
0$
1Y
0[
0Z
1=
0<
0:
12
1;
1+
0>
07
0+
0=
1<
1,
1>
17
0,
#260000
0!
0.
0/
1$
#270000
1!
1.
1/
0$
1[
1:
02
1+
#280000
0!
0.
0/
1$
#290000
1!
1.
1/
0$
0[
1Z
0:
12
0;
0+
1;
1+
1=
0<
0=
1<
0>
07
1>
17
1,
0,
#300000
0!
0.
0/
1$
#310000
1!
1.
1/
0$
1[
1:
02
0;
0+
1=
0<
0>
07
1,
#320000
0!
0.
0/
1$
#330000
1!
1.
1/
0$
0Y
0[
0X
1W
0Z
0=
1<
08
0:
12
1>
17
1?
0,
1;
1+
07
0+
0?
1,
15
0<
05
#340000
0!
0.
0/
1$
#350000
1!
1.
1/
0$
1[
18
1:
02
1+
#360000
0!
0.
0/
1$
#370000
1!
1.
1/
0$
0[
1Z
0:
12
0;
0+
1;
1+
1<
0<
#380000
0!
0.
0/
1$
#390000
1!
1.
1/
0$
1[
1:
02
0;
0+
1<
#400000
0!
0.
0/
1$
#410000
1!
1.
1/
0$
1Y
0[
0Z
1=
0<
0:
12
1;
1+
17
0+
0=
1<
07
#420000
0!
0.
0/
1$
#430000
1!
1.
1/
0$
1[
1:
02
1+
#440000
0!
0.
0/
1$
#450000
1!
1.
1/
0$
0[
1Z
0:
12
0;
0+
1;
1+
1=
0<
0=
1<
17
07
#460000
0!
0.
0/
1$
#470000
1!
1.
1/
0$
1[
1:
02
0;
0+
1=
0<
17
#480000
0!
0.
0/
1$
#490000
1!
1.
1/
0$
0Y
0[
1X
0Z
0=
1<
0:
12
0>
07
1;
1+
1>
17
0+
1?
0,
0<
0?
1,
15
05
#500000
0!
0.
0/
1$
#510000
1!
1.
1/
0$
1[
1:
02
1+
#520000
0!
0.
0/
1$
#530000
1!
1.
1/
0$
0[
1Z
0:
12
0;
0+
1;
1+
1<
0<
#540000
0!
0.
0/
1$
#550000
1!
1.
1/
0$
1[
1:
02
0;
0+
1<
#560000
0!
0.
0/
1$
#570000
1!
1.
1/
0$
1Y
0[
0Z
1=
0<
0:
12
1;
1+
0>
07
0+
0=
1<
1?
0,
1>
17
15
0?
1,
05
#580000
0!
0.
0/
1$
#590000
1!
1.
1/
0$
1[
1:
02
1+
#600000
0!
0.
0/
1$
#610000
1!
1.
1/
0$
0[
1Z
0:
12
0;
0+
1;
1+
1=
0<
0=
1<
0>
07
1>
17
1?
0,
0?
1,
15
05
#620000
0!
0.
0/
1$
#630000
1!
1.
1/
0$
1[
1:
02
0;
0+
1=
0<
0>
07
1?
0,
15
#640000
0!
0.
0/
1$
#650000
1!
1.
1/
0$
0Y
0[
0X
1V
0W
0Z
0=
1<
08
0:
12
1>
17
0@
05
0?
1,
1;
1+
07
0+
0,
14
1@
15
0<
04
#660000
0!
0.
0/
1$
#670000
1!
1.
1/
0$
1[
18
1:
02
1+
#680000
0!
0.
0/
1$
#690000
1!
1.
1/
0$
0[
1Z
0:
12
0;
0+
1;
1+
1<
0<
#700000
0!
0.
0/
1$
#710000
1!
1.
1/
0$
1[
1:
02
0;
0+
1<
#720000
0!
0.
0/
1$
#730000
1!
1.
1/
0$
1Y
0[
0Z
1=
0<
0:
12
1;
1+
17
0+
0=
1<
07
#740000
0!
0.
0/
1$
#750000
1!
1.
1/
0$
1[
1:
02
1+
#760000
0!
0.
0/
1$
#770000
1!
1.
1/
0$
0[
1Z
0:
12
0;
0+
1;
1+
1=
0<
0=
1<
17
07
#780000
0!
0.
0/
1$
#790000
1!
1.
1/
0$
1[
1:
02
0;
0+
1=
0<
17
#800000
0!
0.
0/
1$
#810000
1!
1.
1/
0$
0Y
0[
1X
0Z
0=
1<
0:
12
0>
07
1;
1+
1>
17
0+
1,
0<
0,
#820000
0!
0.
0/
1$
#830000
1!
1.
1/
0$
1[
1:
02
1+
#840000
0!
0.
0/
1$
#850000
1!
1.
1/
0$
0[
1Z
0:
12
0;
0+
1;
1+
1<
0<
#860000
0!
0.
0/
1$
#870000
1!
1.
1/
0$
1[
1:
02
0;
0+
1<
#880000
0!
0.
0/
1$
#890000
1!
1.
1/
0$
1Y
0[
0Z
1=
0<
0:
12
1;
1+
0>
07
0+
0=
1<
1,
1>
17
0,
#900000
0!
0.
0/
1$
#910000
1!
1.
1/
0$
1[
1:
02
1+
#920000
0!
0.
0/
1$
#930000
1!
1.
1/
0$
0[
1Z
0:
12
0;
0+
1;
1+
1=
0<
0=
1<
0>
07
1>
17
1,
0,
#940000
0!
0.
0/
1$
#950000
1!
1.
1/
0$
1[
1:
02
0;
0+
1=
0<
0>
07
1,
#960000
0!
0.
0/
1$
#970000
1!
1.
1/
0$
0Y
0[
0X
1W
0Z
0=
1<
08
0:
12
1>
17
1?
0,
1;
1+
07
0+
0?
1,
0@
05
0<
1@
15
14
04
#980000
0!
0.
0/
1$
#990000
1!
1.
1/
0$
1[
18
1:
02
1+
#1000000
0!
0.
0/
1$
#1010000
1!
1.
1/
0$
0[
1Z
0:
12
0;
0+
1;
1+
1<
0<
#1020000
0!
0.
0/
1$
#1030000
1!
1.
1/
0$
1[
1:
02
0;
0+
1<
#1040000
0!
0.
0/
1$
#1050000
1!
1.
1/
0$
1Y
0[
0Z
1=
0<
0:
12
1;
1+
17
0+
0=
1<
07
#1060000
0!
0.
0/
1$
#1070000
1!
1.
1/
0$
1[
1:
02
1+
#1080000
0!
0.
0/
1$
#1090000
1!
1.
1/
0$
0[
1Z
0:
12
0;
0+
1;
1+
1=
0<
0=
1<
17
07
#1100000
0!
0.
0/
1$
#1110000
1!
1.
1/
0$
1[
1:
02
0;
0+
1=
0<
17
#1120000
0!
0.
0/
1$
#1130000
1!
1.
1/
0$
0Y
0[
1X
0Z
0=
1<
0:
12
0>
07
1;
1+
1>
17
0+
1?
0,
0<
0?
1,
0@
05
1@
15
14
04
#1140000
0!
0.
0/
1$
#1150000
1!
1.
1/
0$
1[
1:
02
1+
#1160000
0!
0.
0/
1$
#1170000
1!
1.
1/
0$
0[
1Z
0:
12
0;
0+
1;
1+
1<
0<
#1180000
0!
0.
0/
1$
#1190000
1!
1.
1/
0$
1[
1:
02
0;
0+
1<
#1200000
0!
0.
0/
1$
#1210000
1!
1.
1/
0$
1Y
0[
0Z
1=
0<
0:
12
1;
1+
0>
07
0+
0=
1<
1?
0,
1>
17
0@
05
0?
1,
14
1@
15
04
#1220000
0!
0.
0/
1$
#1230000
1!
1.
1/
0$
1[
1:
02
1+
#1240000
0!
0.
0/
1$
#1250000
1!
1.
1/
0$
0[
1Z
0:
12
0;
0+
1;
1+
1=
0<
0=
1<
0>
07
1>
17
1?
0,
0?
1,
0@
05
1@
15
14
04
#1260000
0!
0.
0/
1$
#1270000
1!
1.
1/
0$
1[
1:
02
0;
0+
1=
0<
0>
07
1?
0,
0@
05
14
#1280000
0!
0.
0/
1$
#1290000
1!
1.
1/
0$
0Y
0[
0X
0V
1U
0W
0Z
0=
1<
08
0:
12
1>
17
1@
15
1A
04
0?
1,
1;
1+
07
0+
0,
0A
14
1B
05
0<
0B
#1300000
0!
0.
0/
1$
#1310000
1!
1.
1/
0$
1[
18
1:
02
1+
#1320000
0!
0.
0/
1$
#1330000
1!
1.
1/
0$
0[
1Z
0:
12
0;
0+
1;
1+
1<
0<
#1340000
0!
0.
0/
1$
#1350000
1!
1.
1/
0$
1[
1:
02
0;
0+
1<
#1360000
0!
0.
0/
1$
#1370000
1!
1.
1/
0$
1Y
0[
0Z
1=
0<
0:
12
1;
1+
17
0+
0=
1<
07
#1380000
0!
0.
0/
1$
#1390000
1!
1.
1/
0$
1[
1:
02
1+
#1400000
0!
0.
0/
1$
#1410000
1!
1.
1/
0$
0[
1Z
0:
12
0;
0+
1;
1+
1=
0<
0=
1<
17
07
#1420000
0!
0.
0/
1$
#1430000
1!
1.
1/
0$
1[
1:
02
0;
0+
1=
0<
17
#1440000
0!
0.
0/
1$
#1450000
1!
1.
1/
0$
0Y
0[
1X
0Z
0=
1<
0:
12
0>
07
1;
1+
1>
17
0+
1,
0<
0,
#1460000
0!
0.
0/
1$
#1470000
1!
1.
1/
0$
1[
1:
02
1+
#1480000
0!
0.
0/
1$
#1490000
1!
1.
1/
0$
0[
1Z
0:
12
0;
0+
1;
1+
1<
0<
#1500000
0!
0.
0/
1$
#1510000
1!
1.
1/
0$
1[
1:
02
0;
0+
1<
#1520000
0!
0.
0/
1$
#1530000
1!
1.
1/
0$
1Y
0[
0Z
1=
0<
0:
12
1;
1+
0>
07
0+
0=
1<
1,
1>
17
0,
#1540000
0!
0.
0/
1$
#1550000
1!
1.
1/
0$
1[
1:
02
1+
#1560000
0!
0.
0/
1$
#1570000
1!
1.
1/
0$
0[
1Z
0:
12
0;
0+
1;
1+
1=
0<
0=
1<
0>
07
1>
17
1,
0,
#1580000
0!
0.
0/
1$
#1590000
1!
1.
1/
0$
1[
1:
02
0;
0+
1=
0<
0>
07
1,
#1600000
0!
0.
0/
1$
#1610000
1!
1.
1/
0$
0Y
0[
0X
1W
0Z
0=
1<
08
0:
12
1>
17
06
1?
0,
1;
1+
07
19
0+
0?
1,
0G
15
0<
05
1H
#1620000
0!
0.
0/
1$
#1630000
1!
1.
1/
0$
1I
0U
0W
0N
1J
16
04
0,
1G
09
#1640000
0!
0.
0/
1$
#1650000
1!
1.
1/
0$
0O
1K
1[
1P
0L
0J
00
18
1:
02
1+
#1660000
0!
0.
0/
1$
#1670000
1!
1.
1/
0$
1Q
0M
0K
0[
01
1Z
0P
1N
10
1L
0:
12
0H
19
0;
0+
1#
1;
1+
1<
0<
#1680000
0!
0.
0/
1$
#1690000
1!
1.
1/
0$
0Q
1O
1M
0I
11
0Z
09
08
0+
0#
#1700000
0!
0.
0/
1$
#1710000
1!
1.
1/
0$
1[
18
1:
02
1+
#1720000
0!
0.
0/
1$
#1730000
1!
1.
1/
0$
0[
1Z
0:
12
0;
0+
1;
1+
1<
0<
#1740000
0!
0.
0/
1$
#1750000
1!
1.
1/
0$
1[
1:
02
0;
0+
1<
#1760000
0!
0.
0/
1$
#1770000
1!
1.
1/
0$
1Y
0[
0Z
1=
0<
0:
12
1;
1+
17
0+
0=
1<
07
#1780000
0!
0.
0/
1$
#1790000
1!
1.
1/
0$
1[
1:
02
1+
#1800000
0!
0.
0/
1$
#1810000
1!
1.
1/
0$
0[
1Z
0:
12
0;
0+
1;
1+
1=
0<
0=
1<
17
07
#1820000
0!
0.
0/
1$
#1830000
1!
1.
1/
0$
1[
1:
02
0;
0+
1=
0<
17
#1840000
0!
0.
0/
1$
#1850000
1!
1.
1/
0$
0Y
0[
1X
0Z
0=
1<
0:
12
0>
07
1;
1+
1>
17
0+
1,
0<
0,
#1860000
0!
0.
0/
1$
#1870000
1!
1.
1/
0$
1[
1:
02
1+
#1880000
0!
0.
0/
1$
#1890000
1!
1.
1/
0$
0[
1Z
0:
12
0;
0+
1;
1+
1<
0<
#1900000
0!
0.
0/
1$
#1910000
1!
1.
1/
0$
1[
1:
02
0;
0+
1<
#1920000
0!
0.
0/
1$
#1930000
1!
1.
1/
0$
1Y
0[
0Z
1=
0<
0:
12
1;
1+
0>
07
0+
0=
1<
1,
1>
17
0,
#1940000
0!
0.
0/
1$
#1950000
1!
1.
1/
0$
1[
1:
02
1+
#1960000
0!
0.
0/
1$
#1970000
1!
1.
1/
0$
0[
1Z
0:
12
0;
0+
1;
1+
1=
0<
0=
1<
0>
07
1>
17
1,
0,
#1980000
0!
0.
0/
1$
#1990000
1!
1.
1/
0$
1[
1:
02
0;
0+
1=
0<
0>
07
1,
#2000000
0!
0.
0/
1$
#2010000
1!
1.
1/
0$
0Y
0[
0X
1W
0Z
0=
1<
08
0:
12
1>
17
1?
0,
1;
1+
07
0+
0?
1,
15
0<
05
#2020000
0!
0.
0/
1$
#2030000
1!
1.
1/
0$
1[
18
1:
02
1+
#2040000
0!
0.
0/
1$
#2050000
1!
1.
1/
0$
0[
1Z
0:
12
0;
0+
1;
1+
1<
0<
#2060000
0!
0.
0/
1$
#2070000
1!
1.
1/
0$
1[
1:
02
0;
0+
1<
#2080000
0!
0.
0/
1$
#2090000
1!
1.
1/
0$
1Y
0[
0Z
1=
0<
0:
12
1;
1+
17
0+
0=
1<
07
#2100000
0!
0.
0/
1$
#2110000
1!
1.
1/
0$
1[
1:
02
1+
#2120000
0!
0.
0/
1$
#2130000
1!
1.
1/
0$
0[
1Z
0:
12
0;
0+
1;
1+
1=
0<
0=
1<
17
07
#2140000
0!
0.
0/
1$
#2150000
1!
1.
1/
0$
1[
1:
02
0;
0+
1=
0<
17
#2160000
0!
0.
0/
1$
#2170000
1!
1.
1/
0$
0Y
0[
1X
0Z
0=
1<
0:
12
0>
07
1;
1+
1>
17
0+
1?
0,
0<
0?
1,
15
05
#2180000
0!
0.
0/
1$
#2190000
1!
1.
1/
0$
1[
1:
02
1+
#2200000
0!
0.
0/
1$
#2210000
1!
1.
1/
0$
0[
1Z
0:
12
0;
0+
1;
1+
1<
0<
#2220000
0!
0.
0/
1$
#2230000
1!
1.
1/
0$
1[
1:
02
0;
0+
1<
#2240000
0!
0.
0/
1$
#2250000
1!
1.
1/
0$
1Y
0[
0Z
1=
0<
0:
12
1;
1+
0>
07
0+
0=
1<
1?
0,
1>
17
15
0?
1,
05
#2260000
0!
0.
0/
1$
#2270000
1!
1.
1/
0$
1[
1:
02
1+
#2280000
0!
0.
0/
1$
#2290000
1!
1.
1/
0$
0[
1Z
0:
12
0;
0+
1;
1+
1=
0<
0=
1<
0>
07
1>
17
1?
0,
0?
1,
15
05
#2300000
0!
0.
0/
1$
#2310000
1!
1.
1/
0$
1[
1:
02
0;
0+
1=
0<
0>
07
1?
0,
15
#2320000
0!
0.
0/
1$
#2330000
1!
1.
1/
0$
0Y
0[
0X
1V
0W
0Z
0=
1<
08
0:
12
1>
17
0@
05
0?
1,
1;
1+
07
0+
0,
14
1@
15
0<
04
#2340000
0!
0.
0/
1$
#2350000
1!
1.
1/
0$
1[
18
1:
02
1+
#2360000
0!
0.
0/
1$
#2370000
1!
1.
1/
0$
0[
1Z
0:
12
0;
0+
1;
1+
1<
0<
#2380000
0!
0.
0/
1$
#2390000
1!
1.
1/
0$
1[
1:
02
0;
0+
1<
#2400000
0!
0.
0/
1$
#2410000
1!
1.
1/
0$
1Y
0[
0Z
1=
0<
0:
12
1;
1+
17
0+
0=
1<
07
#2420000
0!
0.
0/
1$
#2430000
1!
1.
1/
0$
1[
1:
02
1+
#2440000
0!
0.
0/
1$
#2450000
1!
1.
1/
0$
0[
1Z
0:
12
0;
0+
1;
1+
1=
0<
0=
1<
17
07
#2460000
0!
0.
0/
1$
#2470000
1!
1.
1/
0$
1[
1:
02
0;
0+
1=
0<
17
#2480000
0!
0.
0/
1$
#2490000
1!
1.
1/
0$
0Y
0[
1X
0Z
0=
1<
0:
12
0>
07
1;
1+
1>
17
0+
1,
0<
0,
#2500000
0!
0.
0/
1$
#2510000
1!
1.
1/
0$
1[
1:
02
1+
#2520000
0!
0.
0/
1$
#2530000
1!
1.
1/
0$
0[
1Z
0:
12
0;
0+
1;
1+
1<
0<
#2540000
0!
0.
0/
1$
#2550000
1!
1.
1/
0$
1[
1:
02
0;
0+
1<
#2560000
0!
0.
0/
1$
#2570000
1!
1.
1/
0$
1Y
0[
0Z
1=
0<
0:
12
1;
1+
0>
07
0+
0=
1<
1,
1>
17
0,
#2580000
0!
0.
0/
1$
#2590000
1!
1.
1/
0$
1[
1:
02
1+
#2600000
0!
0.
0/
1$
#2610000
1!
1.
1/
0$
0[
1Z
0:
12
0;
0+
1;
1+
1=
0<
0=
1<
0>
07
1>
17
1,
0,
#2620000
0!
0.
0/
1$
#2630000
1!
1.
1/
0$
1[
1:
02
0;
0+
1=
0<
0>
07
1,
#2640000
0!
0.
0/
1$
#2650000
1!
1.
1/
0$
0Y
0[
0X
1W
0Z
0=
1<
08
0:
12
1>
17
1?
0,
1;
1+
07
0+
0?
1,
0@
05
0<
1@
15
14
04
#2660000
0!
0.
0/
1$
#2670000
1!
1.
1/
0$
1[
18
1:
02
1+
#2680000
0!
0.
0/
1$
#2690000
1!
1.
1/
0$
0[
1Z
0:
12
0;
0+
1;
1+
1<
0<
#2700000
0!
0.
0/
1$
#2710000
1!
1.
1/
0$
1[
1:
02
0;
0+
1<
#2720000
0!
0.
0/
1$
#2730000
1!
1.
1/
0$
1Y
0[
0Z
1=
0<
0:
12
1;
1+
17
0+
0=
1<
07
#2740000
0!
0.
0/
1$
#2750000
1!
1.
1/
0$
1[
1:
02
1+
#2760000
0!
0.
0/
1$
#2770000
1!
1.
1/
0$
0[
1Z
0:
12
0;
0+
1;
1+
1=
0<
0=
1<
17
07
#2780000
0!
0.
0/
1$
#2790000
1!
1.
1/
0$
1[
1:
02
0;
0+
1=
0<
17
#2800000
0!
0.
0/
1$
#2810000
1!
1.
1/
0$
0Y
0[
1X
0Z
0=
1<
0:
12
0>
07
1;
1+
1>
17
0+
1?
0,
0<
0?
1,
0@
05
1@
15
14
04
#2820000
0!
0.
0/
1$
#2830000
1!
1.
1/
0$
1[
1:
02
1+
#2840000
0!
0.
0/
1$
#2850000
1!
1.
1/
0$
0[
1Z
0:
12
0;
0+
1;
1+
1<
0<
#2860000
0!
0.
0/
1$
#2870000
1!
1.
1/
0$
1[
1:
02
0;
0+
1<
#2880000
0!
0.
0/
1$
#2890000
1!
1.
1/
0$
1Y
0[
0Z
1=
0<
0:
12
1;
1+
0>
07
0+
0=
1<
1?
0,
1>
17
0@
05
0?
1,
14
1@
15
04
#2900000
0!
0.
0/
1$
#2910000
1!
1.
1/
0$
1[
1:
02
1+
#2920000
0!
0.
0/
1$
#2930000
1!
1.
1/
0$
0[
1Z
0:
12
0;
0+
1;
1+
1=
0<
0=
1<
0>
07
1>
17
1?
0,
0?
1,
0@
05
1@
15
14
04
#2940000
0!
0.
0/
1$
#2950000
1!
1.
1/
0$
1[
1:
02
0;
0+
1=
0<
0>
07
1?
0,
0@
05
14
#2960000
0!
0.
0/
1$
#2970000
1!
1.
1/
0$
0Y
0[
0X
0V
1U
0W
0Z
0=
1<
08
0:
12
1>
17
1@
15
1A
04
0?
1,
1;
1+
07
0+
0,
0A
14
1B
05
0<
0B
#2980000
0!
0.
0/
1$
#2990000
1!
1.
1/
0$
1[
18
1:
02
1+
#3000000
0!
0.
0/
1$
#3010000
1!
1.
1/
0$
0[
1Z
0:
12
0;
0+
1;
1+
1<
0<
#3020000
0!
0.
0/
1$
#3030000
1!
1.
1/
0$
1[
1:
02
0;
0+
1<
#3040000
0!
0.
0/
1$
#3050000
1!
1.
1/
0$
1Y
0[
0Z
1=
0<
0:
12
1;
1+
17
0+
0=
1<
07
#3060000
0!
0.
0/
1$
#3070000
1!
1.
1/
0$
1[
1:
02
1+
#3080000
0!
0.
0/
1$
#3090000
1!
1.
1/
0$
0[
1Z
0:
12
0;
0+
1;
1+
1=
0<
0=
1<
17
07
#3100000
0!
0.
0/
1$
#3110000
1!
1.
1/
0$
1[
1:
02
0;
0+
1=
0<
17
#3120000
0!
0.
0/
1$
#3130000
1!
1.
1/
0$
0Y
0[
1X
0Z
0=
1<
0:
12
0>
07
1;
1+
1>
17
0+
1,
0<
0,
#3140000
0!
0.
0/
1$
#3150000
1!
1.
1/
0$
1[
1:
02
1+
#3160000
0!
0.
0/
1$
#3170000
1!
1.
1/
0$
0[
1Z
0:
12
0;
0+
1;
1+
1<
0<
#3180000
0!
0.
0/
1$
#3190000
1!
1.
1/
0$
1[
1:
02
0;
0+
1<
#3200000
0!
0.
0/
1$
#3210000
1!
1.
1/
0$
1Y
0[
0Z
1=
0<
0:
12
1;
1+
0>
07
0+
0=
1<
1,
1>
17
0,
#3220000
0!
0.
0/
1$
#3230000
1!
1.
1/
0$
1[
1:
02
1+
#3240000
0!
0.
0/
1$
#3250000
1!
1.
1/
0$
0[
1Z
0:
12
0;
0+
1;
1+
1=
0<
0=
1<
0>
07
1>
17
1,
0,
#3260000
0!
0.
0/
1$
#3270000
1!
1.
1/
0$
1[
1:
02
0;
0+
1=
0<
0>
07
1,
#3280000
0!
0.
0/
1$
#3290000
1!
1.
1/
0$
0Y
0[
0X
1W
0Z
0=
1<
08
0:
12
1>
17
06
1?
0,
1;
1+
07
19
0+
0?
1,
0G
15
0<
05
1H
#3300000
0!
0.
0/
1$
#3310000
1!
1.
1/
0$
1I
0U
0W
0N
1J
16
04
0,
1G
09
#3320000
0!
0.
0/
1$
#3330000
1!
1.
1/
0$
0O
1K
1[
1P
0L
0J
00
18
1:
02
1+
#3340000
0!
0.
0/
1$
#3350000
1!
1.
1/
0$
1Q
0M
0K
0[
01
1Z
0P
1N
10
1L
0:
12
0H
19
0;
0+
1#
1;
1+
1<
0<
#3360000
0!
0.
0/
1$
#3370000
1!
1.
1/
0$
0Q
1O
1M
0I
11
0Z
09
08
0+
0#
#3380000
0!
0.
0/
1$
#3390000
1!
1.
1/
0$
1[
18
1:
02
1+
#3400000
0!
0.
0/
1$
#3410000
1!
1.
1/
0$
0[
1Z
0:
12
0;
0+
1;
1+
1<
0<
#3420000
0!
0.
0/
1$
#3430000
1!
1.
1/
0$
1[
1:
02
0;
0+
1<
#3440000
0!
0.
0/
1$
#3450000
1!
1.
1/
0$
1Y
0[
0Z
1=
0<
0:
12
1;
1+
17
0+
0=
1<
07
#3460000
0!
0.
0/
1$
#3470000
1!
1.
1/
0$
1[
1:
02
1+
#3480000
0!
0.
0/
1$
#3490000
1!
1.
1/
0$
0[
1Z
0:
12
0;
0+
1;
1+
1=
0<
0=
1<
17
07
#3500000
0!
0.
0/
1$
#3510000
1!
1.
1/
0$
1[
1:
02
0;
0+
1=
0<
17
#3520000
0!
0.
0/
1$
#3530000
1!
1.
1/
0$
0Y
0[
1X
0Z
0=
1<
0:
12
0>
07
1;
1+
1>
17
0+
1,
0<
0,
#3540000
0!
0.
0/
1$
#3550000
1!
1.
1/
0$
1[
1:
02
1+
#3560000
0!
0.
0/
1$
#3570000
1!
1.
1/
0$
0[
1Z
0:
12
0;
0+
1;
1+
1<
0<
#3580000
0!
0.
0/
1$
#3590000
1!
1.
1/
0$
1[
1:
02
0;
0+
1<
#3600000
1"
0!
1-
0.
0/
1$
0N
0L
00
#3610000
1!
1.
1/
0$
0O
0M
1Y
0[
01
0Z
1N
1L
10
1=
0<
0:
12
19
1;
1+
0>
07
0+
0=
1<
1,
1>
17
0,
#3620000
0!
0.
0/
1$
#3630000
1!
1.
1/
0$
1O
1M
0Y
0X
11
0N
0L
00
0<
08
07
09
#3640000
0!
0.
0/
1$
#3650000
1!
1.
1/
0$
0O
0M
1[
01
1N
1L
10
18
1:
02
19
1+
#3660000
0!
0.
0/
1$
#3670000
1!
1.
1/
0$
1O
1M
0[
11
0N
0L
00
08
0:
12
09
0+
#3680000
0!
0.
0/
1$
#3690000
1!
1.
1/
0$
0O
0M
1[
01
1N
1L
10
18
1:
02
19
1+
#3700000
0!
0.
0/
1$
#3710000
1!
1.
1/
0$
1O
1M
0[
11
0N
0L
00
08
0:
12
09
0+
#3720000
0!
0.
0/
1$
#3730000
1!
1.
1/
0$
0O
0M
1[
01
1N
1L
10
18
1:
02
19
1+
#3740000
0!
0.
0/
1$
#3750000
1!
1.
1/
0$
1O
1M
0[
11
0N
0L
00
08
0:
12
09
0+
#3760000
0!
0.
0/
1$
#3770000
1!
1.
1/
0$
0O
0M
1[
01
1N
1L
10
18
1:
02
19
1+
#3780000
0!
0.
0/
1$
#3790000
1!
1.
1/
0$
1O
1M
0[
11
0N
0L
00
08
0:
12
09
0+
#3800000
0!
0.
0/
1$
#3810000
1!
1.
1/
0$
0O
0M
1[
01
1N
1L
10
18
1:
02
19
1+
#3820000
0!
0.
0/
1$
#3830000
1!
1.
1/
0$
1O
1M
0[
11
0N
0L
00
08
0:
12
09
0+
#3840000
0!
0.
0/
1$
#3850000
1!
1.
1/
0$
0O
0M
1[
01
1N
1L
10
18
1:
02
19
1+
#3860000
0!
0.
0/
1$
#3870000
1!
1.
1/
0$
1O
1M
0[
11
0N
0L
00
08
0:
12
09
0+
#3880000
0!
0.
0/
1$
#3890000
1!
1.
1/
0$
0O
0M
1[
01
1N
1L
10
18
1:
02
19
1+
#3900000
0!
0.
0/
1$
#3910000
1!
1.
1/
0$
1O
1M
0[
11
0N
0L
00
08
0:
12
09
0+
#3920000
0!
0.
0/
1$
#3930000
1!
1.
1/
0$
0O
0M
1[
01
1N
1L
10
18
1:
02
19
1+
#3940000
0!
0.
0/
1$
#3950000
1!
1.
1/
0$
1O
1M
0[
11
0N
0L
00
08
0:
12
09
0+
#3960000
0!
0.
0/
1$
#3970000
1!
1.
1/
0$
0O
0M
1[
01
1N
1L
10
18
1:
02
19
1+
#3980000
0!
0.
0/
1$
#3990000
1!
1.
1/
0$
1O
1M
0[
11
0N
0L
00
08
0:
12
09
0+
#4000000
0!
0.
0/
1$
#4010000
1!
1.
1/
0$
0O
0M
1[
01
1N
1L
10
18
1:
02
19
1+
#4020000
0!
0.
0/
1$
