atividades/pacemaker/simulation/qsim/pacemaker.msim.vcd
$comment
	File created using the following command:
		vcd file pacemaker.msim.vcd -direction
$end
$date
	Fri Oct  4 14:33:09 2019
$end
$version
	ModelSim Version 10.1d
$end
$timescale
	1ps
$end
$scope module pacemaker_vlg_vec_tst $end
$var reg 1 ! clock $end
$var reg 1 " recieved_contraction $end
$var wire 1 # make_contraction $end
$var wire 1 $ sampler $end
$scope module i1 $end
$var wire 1 % gnd $end
$var wire 1 & vcc $end
$var wire 1 ' unknown $end
$var tri1 1 ( devclrn $end
$var tri1 1 ) devpor $end
$var tri1 1 * devoe $end
$var wire 1 + timer|Add0~24_combout $end
$var wire 1 , timer|Add0~26_combout $end
$var wire 1 - timer|Add0~36_combout $end
$var wire 1 . timer|Add0~38_combout $end
$var wire 1 / timer|Add0~41_combout $end
$var wire 1 0 timer|Add0~43_combout $end
$var wire 1 1 timer|Add0~48_combout $end
$var wire 1 2 timer|Add0~57_combout $end
$var wire 1 3 timer|Add0~94_combout $end
$var wire 1 4 timer|Add0~96_combout $end
$var wire 1 5 timer|Add0~98_combout $end
$var wire 1 6 timer|Add0~105 $end
$var wire 1 7 timer|Add0~106_combout $end
$var wire 1 8 timer|Equal0~2_combout $end
$var wire 1 9 timer|Equal0~7_combout $end
$var wire 1 : timer|Add0~46_combout $end
$var wire 1 ; timer|Add0~50_combout $end
$var wire 1 < timer|Add0~59_combout $end
$var wire 1 = timer|Add0~113_combout $end
$var wire 1 > timer|Add0~114_combout $end
$var wire 1 ? timer|Add0~115_combout $end
$var wire 1 @ timer|Add0~119_combout $end
$var wire 1 A clock~combout $end
$var wire 1 B clock~clkctrl_outclk $end
$var wire 1 C recieved_contraction~combout $end
$var wire 1 D Selector1~0_combout $end
$var wire 1 E start_timer~regout $end
$var wire 1 F timer|Add0~40_combout $end
$var wire 1 G timer|Add0~31_combout $end
$var wire 1 H timer|Add0~35_combout $end
$var wire 1 I timer|Add0~25 $end
$var wire 1 J timer|Add0~27 $end
$var wire 1 K timer|Add0~28_combout $end
$var wire 1 L timer|Add0~30_combout $end
$var wire 1 M timer|Add0~29 $end
$var wire 1 N timer|Add0~32_combout $end
$var wire 1 O timer|Add0~34_combout $end
$var wire 1 P timer|Add0~33 $end
$var wire 1 Q timer|Add0~37 $end
$var wire 1 R timer|Add0~39 $end
$var wire 1 S timer|Add0~42 $end
$var wire 1 T timer|Add0~44 $end
$var wire 1 U timer|Add0~49 $end
$var wire 1 V timer|Add0~51_combout $end
$var wire 1 W timer|Add0~53_combout $end
$var wire 1 X timer|Add0~52 $end
$var wire 1 Y timer|Add0~54_combout $end
$var wire 1 Z timer|Add0~56_combout $end
$var wire 1 [ timer|Add0~55 $end
$var wire 1 \ timer|Add0~58 $end
$var wire 1 ] timer|Add0~60_combout $end
$var wire 1 ^ timer|Add0~62_combout $end
$var wire 1 _ timer|Add0~61 $end
$var wire 1 ` timer|Add0~63_combout $end
$var wire 1 a timer|Add0~65_combout $end
$var wire 1 b timer|Add0~64 $end
$var wire 1 c timer|Add0~67 $end
$var wire 1 d timer|Add0~69_combout $end
$var wire 1 e timer|Add0~71_combout $end
$var wire 1 f timer|Add0~70 $end
$var wire 1 g timer|Add0~72_combout $end
$var wire 1 h timer|Add0~74_combout $end
$var wire 1 i timer|Add0~73 $end
$var wire 1 j timer|Add0~75_combout $end
$var wire 1 k timer|Add0~77_combout $end
$var wire 1 l timer|Add0~76 $end
$var wire 1 m timer|Add0~78_combout $end
$var wire 1 n timer|Add0~80_combout $end
$var wire 1 o timer|Add0~79 $end
$var wire 1 p timer|Add0~81_combout $end
$var wire 1 q timer|Add0~83_combout $end
$var wire 1 r timer|Add0~82 $end
$var wire 1 s timer|Add0~84_combout $end
$var wire 1 t timer|Add0~108_combout $end
$var wire 1 u timer|Add0~85 $end
$var wire 1 v timer|Add0~87 $end
$var wire 1 w timer|Add0~88_combout $end
$var wire 1 x timer|Add0~110_combout $end
$var wire 1 y timer|Add0~86_combout $end
$var wire 1 z timer|Add0~109_combout $end
$var wire 1 { timer|Equal0~6_combout $end
$var wire 1 | timer|Equal0~5_combout $end
$var wire 1 } timer|Add0~89 $end
$var wire 1 ~ timer|Add0~90_combout $end
$var wire 1 !! timer|Add0~111_combout $end
$var wire 1 "! timer|Add0~91 $end
$var wire 1 #! timer|Add0~92_combout $end
$var wire 1 $! timer|Add0~112_combout $end
$var wire 1 %! timer|Add0~93 $end
$var wire 1 &! timer|Add0~95 $end
$var wire 1 '! timer|Add0~97 $end
$var wire 1 (! timer|Add0~99 $end
$var wire 1 )! timer|Add0~100_combout $end
$var wire 1 *! timer|Add0~116_combout $end
$var wire 1 +! timer|Add0~101 $end
$var wire 1 ,! timer|Add0~102_combout $end
$var wire 1 -! timer|Add0~117_combout $end
$var wire 1 .! timer|Add0~103 $end
$var wire 1 /! timer|Add0~104_combout $end
$var wire 1 0! timer|Add0~118_combout $end
$var wire 1 1! timer|Equal0~8_combout $end
$var wire 1 2! timer|Equal0~9_combout $end
$var wire 1 3! timer|Add0~47_combout $end
$var wire 1 4! timer|Add0~45_combout $end
$var wire 1 5! timer|Equal0~1_combout $end
$var wire 1 6! timer|Equal0~0_combout $end
$var wire 1 7! timer|Add0~66_combout $end
$var wire 1 8! timer|Add0~68_combout $end
$var wire 1 9! timer|Equal0~3_combout $end
$var wire 1 :! timer|Equal0~4_combout $end
$var wire 1 ;! timer|time_is_over~0_combout $end
$var wire 1 <! timer|time_is_over~regout $end
$var wire 1 =! next_state~5_combout $end
$var wire 1 >! next_state.contraction_state~regout $end
$var wire 1 ?! Selector2~0_combout $end
$var wire 1 @! next_state.reset_timer_state~regout $end
$var wire 1 A! Selector3~0_combout $end
$var wire 1 B! next_state.wait_state~regout $end
$var wire 1 C! Selector0~0_combout $end
$var wire 1 D! make_contraction~reg0_regout $end
$var wire 1 E! timer|milliseconds [31] $end
$var wire 1 F! timer|milliseconds [30] $end
$var wire 1 G! timer|milliseconds [29] $end
$var wire 1 H! timer|milliseconds [28] $end
$var wire 1 I! timer|milliseconds [27] $end
$var wire 1 J! timer|milliseconds [26] $end
$var wire 1 K! timer|milliseconds [25] $end
$var wire 1 L! timer|milliseconds [24] $end
$var wire 1 M! timer|milliseconds [23] $end
$var wire 1 N! timer|milliseconds [22] $end
$var wire 1 O! timer|milliseconds [21] $end
$var wire 1 P! timer|milliseconds [20] $end
$var wire 1 Q! timer|milliseconds [19] $end
$var wire 1 R! timer|milliseconds [18] $end
$var wire 1 S! timer|milliseconds [17] $end
$var wire 1 T! timer|milliseconds [16] $end
$var wire 1 U! timer|milliseconds [15] $end
$var wire 1 V! timer|milliseconds [14] $end
$var wire 1 W! timer|milliseconds [13] $end
$var wire 1 X! timer|milliseconds [12] $end
$var wire 1 Y! timer|milliseconds [11] $end
$var wire 1 Z! timer|milliseconds [10] $end
$var wire 1 [! timer|milliseconds [9] $end
$var wire 1 \! timer|milliseconds [8] $end
$var wire 1 ]! timer|milliseconds [7] $end
$var wire 1 ^! timer|milliseconds [6] $end
$var wire 1 _! timer|milliseconds [5] $end
$var wire 1 `! timer|milliseconds [4] $end
$var wire 1 a! timer|milliseconds [3] $end
$var wire 1 b! timer|milliseconds [2] $end
$var wire 1 c! timer|milliseconds [1] $end
$var wire 1 d! timer|milliseconds [0] $end
$upscope $end
$upscope $end
$enddefinitions $end
#0
$dumpvars
0!
0"
0#
x$
0%
1&
x'
1(
1)
1*
0+
1,
0-
0.
0/
00
01
02
03
04
05
06
17
08
09
0:
0;
0<
0=
0>
0?
1@
0A
0B
0C
1D
0E
0F
0G
1H
1I
1J
0K
0L
0M
0N
0O
1P
0Q
1R
0S
1T
0U
0V
0W
1X
0Y
0Z
0[
1\
0]
0^
0_
0`
0a
1b
0c
0d
0e
1f
0g
0h
0i
0j
0k
1l
0m
0n
0o
0p
0q
1r
0s
0t
0u
1v
0w
0x
0y
0z
0{
0|
0}
0~
0!!
1"!
0#!
0$!
0%!
1&!
0'!
1(!
0)!
0*!
0+!
0,!
0-!
1.!
0/!
00!
11!
12!
03!
04!
15!
16!
07!
08!
09!
1:!
0;!
0<!
0=!
0>!
1?!
0@!
1A!
0B!
0C!
0D!
0d!
0c!
0b!
0a!
0`!
0_!
0^!
0]!
0\!
0[!
0Z!
0Y!
0X!
0W!
0V!
0U!
0T!
0S!
0R!
0Q!
0P!
0O!
0N!
0M!
0L!
0K!
0J!
0I!
0H!
0G!
0F!
0E!
$end
#10000
1!
1A
1B
0$
1B!
1@!
1d!
1E
1E!
06!
0I
1+
1G
0@
01!
07
0,
0H
02!
1@
0G
#20000
0!
0A
0B
1$
#30000
1!
1A
1B
0$
0d!
16!
1I
0+
1,
1H
1G
#40000
0!
0A
0B
1$
#50000
1!
1A
1B
0$
1d!
1c!
0I
1+
0J
0,
1J
1,
0H
1K
0G
0K
1G
1L
0L
#60000
0!
0A
0B
1$
#70000
1!
1A
1B
0$
0d!
1I
0+
0J
0,
1H
1K
0G
1L
#80000
0!
0A
0B
1$
#90000
1!
1A
1B
0$
1b!
1d!
0c!
1M
0K
0I
1+
1J
1,
1N
0L
0,
0H
0M
1K
1G
1O
0G
0N
1L
0O
#100000
0!
0A
0B
1$
#110000
1!
1A
1B
0$
0d!
1I
0+
1,
1H
1G
#120000
0!
0A
0B
1$
#130000
1!
1A
1B
0$
1d!
1c!
0I
1+
0J
0,
1J
1,
0H
1M
0K
0G
0M
1K
1G
1N
0L
0N
1L
1O
0O
#140000
0!
0A
0B
1$
#150000
1!
1A
1B
0$
0d!
1I
0+
0J
0,
1H
1M
0K
0G
1N
0L
1O
#160000
0!
0A
0B
1$
#170000
1!
1A
1B
0$
1a!
0b!
1d!
0c!
0P
0N
0M
1K
0I
1+
1J
1,
1-
0O
1P
1N
1L
0,
0H
0K
1G
1:
0-
1O
0G
0L
0:
#180000
0!
0A
0B
1$
#190000
1!
1A
1B
0$
0d!
1I
0+
1,
1H
1G
#200000
0!
0A
0B
1$
#210000
1!
1A
1B
0$
1d!
1c!
0I
1+
0J
0,
1J
1,
0H
1K
0G
0K
1G
1L
0L
#220000
0!
0A
0B
1$
#230000
1!
1A
1B
0$
0d!
1I
0+
0J
0,
1H
1K
0G
1L
#240000
0!
0A
0B
1$
#250000
1!
1A
1B
0$
1b!
1d!
0c!
1M
0K
0I
1+
1J
1,
0P
0N
0L
0,
0H
0M
1K
1G
1-
0O
0G
1P
1N
1L
1:
0-
1O
0:
#260000
0!
0A
0B
1$
#270000
1!
1A
1B
0$
0d!
1I
0+
1,
1H
1G
#280000
0!
0A
0B
1$
#290000
1!
1A
1B
0$
1d!
1c!
0I
1+
0J
0,
1J
1,
0H
1M
0K
0G
0M
1K
1G
0P
0N
0L
1P
1N
1L
1-
0O
0-
1O
1:
0:
#300000
0!
0A
0B
1$
#310000
1!
1A
1B
0$
0d!
1I
0+
0J
0,
1H
1M
0K
0G
0P
0N
0L
1-
0O
1:
#320000
0!
0A
0B
1$
#330000
1!
1A
1B
0$
0a!
0b!
1d!
0c!
1`!
06!
1P
1N
0M
1K
0I
1+
1J
1,
1Q
0-
0Q
1-
1O
0N
1L
0,
0H
0K
1G
1.
0:
0.
1:
0O
0G
0L
1F
0F
#340000
0!
0A
0B
1$
#350000
1!
1A
1B
0$
0d!
16!
1I
0+
1,
1H
1G
#360000
0!
0A
0B
1$
#370000
1!
1A
1B
0$
1d!
1c!
0I
1+
0J
0,
1J
1,
0H
1K
0G
0K
1G
1L
0L
#380000
0!
0A
0B
1$
#390000
1!
1A
1B
0$
0d!
1I
0+
0J
0,
1H
1K
0G
1L
#400000
0!
0A
0B
1$
#410000
1!
1A
1B
0$
1b!
1d!
0c!
1M
0K
0I
1+
1J
1,
1N
0L
0,
0H
0M
1K
1G
1O
0G
0N
1L
0O
#420000
0!
0A
0B
1$
#430000
1!
1A
1B
0$
0d!
1I
0+
1,
1H
1G
#440000
0!
0A
0B
1$
#450000
1!
1A
1B
0$
1d!
1c!
0I
1+
0J
0,
1J
1,
0H
1M
0K
0G
0M
1K
1G
1N
0L
0N
1L
1O
0O
#460000
0!
0A
0B
1$
#470000
1!
1A
1B
0$
0d!
1I
0+
0J
0,
1H
1M
0K
0G
1N
0L
1O
#480000
0!
0A
0B
1$
#490000
1!
1A
1B
0$
1a!
0b!
1d!
0c!
0P
0N
0M
1K
0I
1+
1J
1,
1Q
0-
0O
1P
1N
1L
0,
0H
0K
1G
1.
0:
0Q
1-
1O
0G
0L
1F
0.
1:
0F
#500000
0!
0A
0B
1$
#510000
1!
1A
1B
0$
0d!
1I
0+
1,
1H
1G
#520000
0!
0A
0B
1$
#530000
1!
1A
1B
0$
1d!
1c!
0I
1+
0J
0,
1J
1,
0H
1K
0G
0K
1G
1L
0L
#540000
0!
0A
0B
1$
#550000
1!
1A
1B
0$
0d!
1I
0+
0J
0,
1H
1K
0G
1L
#560000
0!
0A
0B
1$
#570000
1!
1A
1B
0$
1b!
1d!
0c!
1M
0K
0I
1+
1J
1,
0P
0N
0L
0,
0H
0M
1K
1G
1Q
0-
0O
0G
1P
1N
1L
1.
0:
0Q
1-
1O
1F
0.
1:
0F
#580000
0!
0A
0B
1$
#590000
1!
1A
1B
0$
0d!
1I
0+
1,
1H
1G
#600000
0!
0A
0B
1$
#610000
1!
1A
1B
0$
1d!
1c!
0I
1+
0J
0,
1J
1,
0H
1M
0K
0G
0M
1K
1G
0P
0N
0L
1P
1N
1L
1Q
0-
0O
0Q
1-
1O
1.
0:
0.
1:
1F
0F
#620000
0!
0A
0B
1$
#630000
1!
1A
1B
0$
0d!
1I
0+
0J
0,
1H
1M
0K
0G
0P
0N
0L
1Q
0-
0O
1.
0:
1F
#640000
0!
0A
0B
1$
#650000
1!
1A
1B
0$
0a!
0b!
1d!
0c!
1_!
0`!
06!
1P
1N
0M
1K
0I
1+
1J
1,
0R
0.
0Q
1-
0-
1O
0N
1L
0,
0H
0K
1G
1/
0F
1R
1.
1:
0:
0O
0G
0L
13!
0/
1F
03!
#660000
0!
0A
0B
1$
#670000
1!
1A
1B
0$
0d!
16!
1I
0+
1,
1H
1G
#680000
0!
0A
0B
1$
#690000
1!
1A
1B
0$
1d!
1c!
0I
1+
0J
0,
1J
1,
0H
1K
0G
0K
1G
1L
0L
#700000
0!
0A
0B
1$
#710000
1!
1A
1B
0$
0d!
1I
0+
0J
0,
1H
1K
0G
1L
#720000
0!
0A
0B
1$
#730000
1!
1A
1B
0$
1b!
1d!
0c!
1M
0K
0I
1+
1J
1,
1N
0L
0,
0H
0M
1K
1G
1O
0G
0N
1L
0O
#740000
0!
0A
0B
1$
#750000
1!
1A
1B
0$
0d!
1I
0+
1,
1H
1G
#760000
0!
0A
0B
1$
#770000
1!
1A
1B
0$
1d!
1c!
0I
1+
0J
0,
1J
1,
0H
1M
0K
0G
0M
1K
1G
1N
0L
0N
1L
1O
0O
#780000
0!
0A
0B
1$
#790000
1!
1A
1B
0$
0d!
1I
0+
0J
0,
1H
1M
0K
0G
1N
0L
1O
#800000
0!
0A
0B
1$
#810000
1!
1A
1B
0$
1a!
0b!
1d!
0c!
0P
0N
0M
1K
0I
1+
1J
1,
1-
0O
1P
1N
1L
0,
0H
0K
1G
1:
0-
1O
0G
0L
0:
#820000
0!
0A
0B
1$
#830000
1!
1A
1B
0$
0d!
1I
0+
1,
1H
1G
#840000
0!
0A
0B
1$
#850000
1!
1A
1B
0$
1d!
1c!
0I
1+
0J
0,
1J
1,
0H
1K
0G
0K
1G
1L
0L
#860000
0!
0A
0B
1$
#870000
1!
1A
1B
0$
0d!
1I
0+
0J
0,
1H
1K
0G
1L
#880000
0!
0A
0B
1$
#890000
1!
1A
1B
0$
1b!
1d!
0c!
1M
0K
0I
1+
1J
1,
0P
0N
0L
0,
0H
0M
1K
1G
1-
0O
0G
1P
1N
1L
1:
0-
1O
0:
#900000
0!
0A
0B
1$
#910000
1!
1A
1B
0$
0d!
1I
0+
1,
1H
1G
#920000
0!
0A
0B
1$
#930000
1!
1A
1B
0$
1d!
1c!
0I
1+
0J
0,
1J
1,
0H
1M
0K
0G
0M
1K
1G
0P
0N
0L
1P
1N
1L
1-
0O
0-
1O
1:
0:
#940000
0!
0A
0B
1$
#950000
1!
1A
1B
0$
0d!
1I
0+
0J
0,
1H
1M
0K
0G
0P
0N
0L
1-
0O
1:
#960000
0!
0A
0B
1$
#970000
1!
1A
1B
0$
0a!
0b!
1d!
0c!
1`!
06!
1P
1N
0M
1K
0I
1+
1J
1,
1Q
0-
0Q
1-
1O
0N
1L
0,
0H
0K
1G
0R
0.
0:
1R
1.
1:
0O
0G
0L
1/
0F
0/
1F
13!
03!
#980000
0!
0A
0B
1$
#990000
1!
1A
1B
0$
0d!
16!
1I
0+
1,
1H
1G
#1000000
0!
0A
0B
1$
#1010000
1!
1A
1B
0$
1d!
1c!
0I
1+
0J
0,
1J
1,
0H
1K
0G
0K
1G
1L
0L
#1020000
0!
0A
0B
1$
#1030000
1!
1A
1B
0$
0d!
1I
0+
0J
0,
1H
1K
0G
1L
#1040000
0!
0A
0B
1$
#1050000
1!
1A
1B
0$
1b!
1d!
0c!
1M
0K
0I
1+
1J
1,
1N
0L
0,
0H
0M
1K
1G
1O
0G
0N
1L
0O
#1060000
0!
0A
0B
1$
#1070000
1!
1A
1B
0$
0d!
1I
0+
1,
1H
1G
#1080000
0!
0A
0B
1$
#1090000
1!
1A
1B
0$
1d!
1c!
0I
1+
0J
0,
1J
1,
0H
1M
0K
0G
0M
1K
1G
1N
0L
0N
1L
1O
0O
#1100000
0!
0A
0B
1$
#1110000
1!
1A
1B
0$
0d!
1I
0+
0J
0,
1H
1M
0K
0G
1N
0L
1O
#1120000
0!
0A
0B
1$
#1130000
1!
1A
1B
0$
1a!
0b!
1d!
0c!
0P
0N
0M
1K
0I
1+
1J
1,
1Q
0-
0O
1P
1N
1L
0,
0H
0K
1G
0R
0.
0:
0Q
1-
1O
0G
0L
1/
0F
1R
1.
1:
13!
0/
1F
03!
#1140000
0!
0A
0B
1$
#1150000
1!
1A
1B
0$
0d!
1I
0+
1,
1H
1G
#1160000
0!
0A
0B
1$
#1170000
1!
1A
1B
0$
1d!
1c!
0I
1+
0J
0,
1J
1,
0H
1K
0G
0K
1G
1L
0L
#1180000
0!
0A
0B
1$
#1190000
1!
1A
1B
0$
0d!
1I
0+
0J
0,
1H
1K
0G
1L
#1200000
0!
0A
0B
1$
#1210000
1!
1A
1B
0$
1b!
1d!
0c!
1M
0K
0I
1+
1J
1,
0P
0N
0L
0,
0H
0M
1K
1G
1Q
0-
0O
0G
1P
1N
1L
0R
0.
0:
0Q
1-
1O
1/
0F
1R
1.
1:
13!
0/
1F
03!
#1220000
0!
0A
0B
1$
#1230000
1!
1A
1B
0$
0d!
1I
0+
1,
1H
1G
#1240000
0!
0A
0B
1$
#1250000
1!
1A
1B
0$
1d!
1c!
0I
1+
0J
0,
1J
1,
0H
1M
0K
0G
0M
1K
1G
0P
0N
0L
1P
1N
1L
1Q
0-
0O
0Q
1-
1O
0R
0.
0:
1R
1.
1:
1/
0F
0/
1F
13!
03!
#1260000
0!
0A
0B
1$
#1270000
1!
1A
1B
0$
0d!
1I
0+
0J
0,
1H
1M
0K
0G
0P
0N
0L
1Q
0-
0O
0R
0.
0:
1/
0F
13!
#1280000
0!
0A
0B
1$
#1290000
1!
1A
1B
0$
1^!
0a!
0b!
1d!
0c!
0_!
0`!
1S
0/
06!
1P
1N
0M
1K
0I
1+
1J
1,
1R
1.
0Q
1-
10
03!
0-
1O
0N
1L
0,
0H
0K
1G
0S
1/
1F
0.
1:
14!
0:
0O
0G
0L
00
13!
0F
04!
#1300000
0!
0A
0B
1$
#1310000
1!
1A
1B
0$
0d!
16!
1I
0+
1,
1H
1G
#1320000
0!
0A
0B
1$
#1330000
1!
1A
1B
0$
1d!
1c!
0I
1+
0J
0,
1J
1,
0H
1K
0G
0K
1G
1L
0L
#1340000
0!
0A
0B
1$
#1350000
1!
1A
1B
0$
0d!
1I
0+
0J
0,
1H
1K
0G
1L
#1360000
0!
0A
0B
1$
#1370000
1!
1A
1B
0$
1b!
1d!
0c!
1M
0K
0I
1+
1J
1,
1N
0L
0,
0H
0M
1K
1G
1O
0G
0N
1L
0O
#1380000
0!
0A
0B
1$
#1390000
1!
1A
1B
0$
0d!
1I
0+
1,
1H
1G
#1400000
0!
0A
0B
1$
#1410000
1!
1A
1B
0$
1d!
1c!
0I
1+
0J
0,
1J
1,
0H
1M
0K
0G
0M
1K
1G
1N
0L
0N
1L
1O
0O
#1420000
0!
0A
0B
1$
#1430000
1!
1A
1B
0$
0d!
1I
0+
0J
0,
1H
1M
0K
0G
1N
0L
1O
#1440000
0!
0A
0B
1$
#1450000
1!
1A
1B
0$
1a!
0b!
1d!
0c!
0P
0N
0M
1K
0I
1+
1J
1,
1-
0O
1P
1N
1L
0,
0H
0K
1G
1:
0-
1O
0G
0L
0:
#1460000
0!
0A
0B
1$
#1470000
1!
1A
1B
0$
0d!
1I
0+
1,
1H
1G
#1480000
0!
0A
0B
1$
#1490000
1!
1A
1B
0$
1d!
1c!
0I
1+
0J
0,
1J
1,
0H
1K
0G
0K
1G
1L
0L
#1500000
0!
0A
0B
1$
#1510000
1!
1A
1B
0$
0d!
1I
0+
0J
0,
1H
1K
0G
1L
#1520000
0!
0A
0B
1$
#1530000
1!
1A
1B
0$
1b!
1d!
0c!
1M
0K
0I
1+
1J
1,
0P
0N
0L
0,
0H
0M
1K
1G
1-
0O
0G
1P
1N
1L
1:
0-
1O
0:
#1540000
0!
0A
0B
1$
#1550000
1!
1A
1B
0$
0d!
1I
0+
1,
1H
1G
#1560000
0!
0A
0B
1$
#1570000
1!
1A
1B
0$
1d!
1c!
0I
1+
0J
0,
1J
1,
0H
1M
0K
0G
0M
1K
1G
0P
0N
0L
1P
1N
1L
1-
0O
0-
1O
1:
0:
#1580000
0!
0A
0B
1$
#1590000
1!
1A
1B
0$
0d!
1I
0+
0J
0,
1H
1M
0K
0G
0P
0N
0L
1-
0O
1:
#1600000
0!
0A
0B
1$
#1610000
1!
1A
1B
0$
0a!
0b!
1d!
0c!
1`!
06!
1P
1N
0M
1K
0I
1+
1J
1,
05!
1Q
0-
0:!
0Q
1-
1O
0N
1L
0,
0H
0K
1G
1.
0:
1;!
03!
0O
0L
1H
0G
0.
#1620000
0!
0A
0B
1$
#1630000
1!
1A
1B
0$
1<!
0^!
0`!
0A!
1=!
15!
0/
0-
1:!
0H
#1640000
0!
0A
0B
1$
#1650000
1!
1A
1B
0$
0B!
1>!
0d!
1C!
0?!
0=!
0D
16!
1I
0+
1,
1H
1G
#1660000
0!
0A
0B
1$
#1670000
1!
1A
1B
0$
1D!
0@!
0>!
1d!
1c!
0E
0C!
1A!
1D
1?!
0I
1+
0J
0,
0;!
0G
1#
1J
1,
1K
0K
#1680000
0!
0A
0B
1$
#1690000
1!
1A
1B
0$
0D!
1B!
1@!
0<!
0c!
1E
06!
0,
0H
1G
0#
0G
#1700000
0!
0A
0B
1$
#1710000
1!
1A
1B
0$
0d!
16!
1I
0+
1,
1H
1G
#1720000
0!
0A
0B
1$
#1730000
1!
1A
1B
0$
1d!
1c!
0I
1+
0J
0,
1J
1,
0H
1K
0G
0K
1G
1L
0L
#1740000
0!
0A
0B
1$
#1750000
1!
1A
1B
0$
0d!
1I
0+
0J
0,
1H
1K
0G
1L
#1760000
0!
0A
0B
1$
#1770000
1!
1A
1B
0$
1b!
1d!
0c!
1M
0K
0I
1+
1J
1,
1N
0L
0,
0H
0M
1K
1G
1O
0G
0N
1L
0O
#1780000
0!
0A
0B
1$
#1790000
1!
1A
1B
0$
0d!
1I
0+
1,
1H
1G
#1800000
0!
0A
0B
1$
#1810000
1!
1A
1B
0$
1d!
1c!
0I
1+
0J
0,
1J
1,
0H
1M
0K
0G
0M
1K
1G
1N
0L
0N
1L
1O
0O
#1820000
0!
0A
0B
1$
#1830000
1!
1A
1B
0$
0d!
1I
0+
0J
0,
1H
1M
0K
0G
1N
0L
1O
#1840000
0!
0A
0B
1$
#1850000
1!
1A
1B
0$
1a!
0b!
1d!
0c!
0P
0N
0M
1K
0I
1+
1J
1,
1-
0O
1P
1N
1L
0,
0H
0K
1G
1:
0-
1O
0G
0L
0:
#1860000
0!
0A
0B
1$
#1870000
1!
1A
1B
0$
0d!
1I
0+
1,
1H
1G
#1880000
0!
0A
0B
1$
#1890000
1!
1A
1B
0$
1d!
1c!
0I
1+
0J
0,
1J
1,
0H
1K
0G
0K
1G
1L
0L
#1900000
0!
0A
0B
1$
#1910000
1!
1A
1B
0$
0d!
1I
0+
0J
0,
1H
1K
0G
1L
#1920000
0!
0A
0B
1$
#1930000
1!
1A
1B
0$
1b!
1d!
0c!
1M
0K
0I
1+
1J
1,
0P
0N
0L
0,
0H
0M
1K
1G
1-
0O
0G
1P
1N
1L
1:
0-
1O
0:
#1940000
0!
0A
0B
1$
#1950000
1!
1A
1B
0$
0d!
1I
0+
1,
1H
1G
#1960000
0!
0A
0B
1$
#1970000
1!
1A
1B
0$
1d!
1c!
0I
1+
0J
0,
1J
1,
0H
1M
0K
0G
0M
1K
1G
0P
0N
0L
1P
1N
1L
1-
0O
0-
1O
1:
0:
#1980000
0!
0A
0B
1$
#1990000
1!
1A
1B
0$
0d!
1I
0+
0J
0,
1H
1M
0K
0G
0P
0N
0L
1-
0O
1:
#2000000
0!
0A
0B
1$
#2010000
1!
1A
1B
0$
0a!
0b!
1d!
0c!
1`!
06!
1P
1N
0M
1K
0I
1+
1J
1,
1Q
0-
0Q
1-
1O
0N
1L
0,
0H
0K
1G
1.
0:
0.
1:
0O
0G
0L
1F
0F
#2020000
0!
0A
0B
1$
#2030000
1!
1A
1B
0$
0d!
16!
1I
0+
1,
1H
1G
#2040000
0!
0A
0B
1$
#2050000
1!
1A
1B
0$
1d!
1c!
0I
1+
0J
0,
1J
1,
0H
1K
0G
0K
1G
1L
0L
#2060000
0!
0A
0B
1$
#2070000
1!
1A
1B
0$
0d!
1I
0+
0J
0,
1H
1K
0G
1L
#2080000
0!
0A
0B
1$
#2090000
1!
1A
1B
0$
1b!
1d!
0c!
1M
0K
0I
1+
1J
1,
1N
0L
0,
0H
0M
1K
1G
1O
0G
0N
1L
0O
#2100000
0!
0A
0B
1$
#2110000
1!
1A
1B
0$
0d!
1I
0+
1,
1H
1G
#2120000
0!
0A
0B
1$
#2130000
1!
1A
1B
0$
1d!
1c!
0I
1+
0J
0,
1J
1,
0H
1M
0K
0G
0M
1K
1G
1N
0L
0N
1L
1O
0O
#2140000
0!
0A
0B
1$
#2150000
1!
1A
1B
0$
0d!
1I
0+
0J
0,
1H
1M
0K
0G
1N
0L
1O
#2160000
0!
0A
0B
1$
#2170000
1!
1A
1B
0$
1a!
0b!
1d!
0c!
0P
0N
0M
1K
0I
1+
1J
1,
1Q
0-
0O
1P
1N
1L
0,
0H
0K
1G
1.
0:
0Q
1-
1O
0G
0L
1F
0.
1:
0F
#2180000
0!
0A
0B
1$
#2190000
1!
1A
1B
0$
0d!
1I
0+
1,
1H
1G
#2200000
0!
0A
0B
1$
#2210000
1!
1A
1B
0$
1d!
1c!
0I
1+
0J
0,
1J
1,
0H
1K
0G
0K
1G
1L
0L
#2220000
0!
0A
0B
1$
#2230000
1!
1A
1B
0$
0d!
1I
0+
0J
0,
1H
1K
0G
1L
#2240000
0!
0A
0B
1$
#2250000
1!
1A
1B
0$
1b!
1d!
0c!
1M
0K
0I
1+
1J
1,
0P
0N
0L
0,
0H
0M
1K
1G
1Q
0-
0O
0G
1P
1N
1L
1.
0:
0Q
1-
1O
1F
0.
1:
0F
#2260000
0!
0A
0B
1$
#2270000
1!
1A
1B
0$
0d!
1I
0+
1,
1H
1G
#2280000
0!
0A
0B
1$
#2290000
1!
1A
1B
0$
1d!
1c!
0I
1+
0J
0,
1J
1,
0H
1M
0K
0G
0M
1K
1G
0P
0N
0L
1P
1N
1L
1Q
0-
0O
0Q
1-
1O
1.
0:
0.
1:
1F
0F
#2300000
0!
0A
0B
1$
#2310000
1!
1A
1B
0$
0d!
1I
0+
0J
0,
1H
1M
0K
0G
0P
0N
0L
1Q
0-
0O
1.
0:
1F
#2320000
0!
0A
0B
1$
#2330000
1!
1A
1B
0$
0a!
0b!
1d!
0c!
1_!
0`!
06!
1P
1N
0M
1K
0I
1+
1J
1,
0R
0.
0Q
1-
0-
1O
0N
1L
0,
0H
0K
1G
1/
0F
1R
1.
1:
0:
0O
0G
0L
13!
0/
1F
03!
#2340000
0!
0A
0B
1$
#2350000
1!
1A
1B
0$
0d!
16!
1I
0+
1,
1H
1G
#2360000
0!
0A
0B
1$
#2370000
1!
1A
1B
0$
1d!
1c!
0I
1+
0J
0,
1J
1,
0H
1K
0G
0K
1G
1L
0L
#2380000
0!
0A
0B
1$
#2390000
1!
1A
1B
0$
0d!
1I
0+
0J
0,
1H
1K
0G
1L
#2400000
0!
0A
0B
1$
#2410000
1!
1A
1B
0$
1b!
1d!
0c!
1M
0K
0I
1+
1J
1,
1N
0L
0,
0H
0M
1K
1G
1O
0G
0N
1L
0O
#2420000
0!
0A
0B
1$
#2430000
1!
1A
1B
0$
0d!
1I
0+
1,
1H
1G
#2440000
0!
0A
0B
1$
#2450000
1!
1A
1B
0$
1d!
1c!
0I
1+
0J
0,
1J
1,
0H
1M
0K
0G
0M
1K
1G
1N
0L
0N
1L
1O
0O
#2460000
0!
0A
0B
1$
#2470000
1!
1A
1B
0$
0d!
1I
0+
0J
0,
1H
1M
0K
0G
1N
0L
1O
#2480000
0!
0A
0B
1$
