ffd/simulation/qsim/flipflop.msim.vcd
$comment
	File created using the following command:
		vcd file flipflop.msim.vcd -direction
$end
$date
	Fri Sep 13 16:29:34 2019
$end
$version
	ModelSim Version 10.1d
$end
$timescale
	1ps
$end
$scope module ffd_vlg_vec_tst $end
$var reg 1 ! clock $end
$var reg 8 " d [7:0] $end
$var reg 1 # load $end
$var wire 1 $ q [7] $end
$var wire 1 % q [6] $end
$var wire 1 & q [5] $end
$var wire 1 ' q [4] $end
$var wire 1 ( q [3] $end
$var wire 1 ) q [2] $end
$var wire 1 * q [1] $end
$var wire 1 + q [0] $end
$var wire 1 , sampler $end
$scope module i1 $end
$var wire 1 - gnd $end
$var wire 1 . vcc $end
$var wire 1 / unknown $end
$var tri1 1 0 devclrn $end
$var tri1 1 1 devpor $end
$var tri1 1 2 devoe $end
$var wire 1 3 clock~combout $end
$var wire 1 4 clock~clkctrl_outclk $end
$var wire 1 5 load~combout $end
$var wire 1 6 q[0]~reg0_regout $end
$var wire 1 7 q[1]~reg0feeder_combout $end
$var wire 1 8 q[1]~reg0_regout $end
$var wire 1 9 q[2]~reg0_regout $end
$var wire 1 : q[3]~reg0_regout $end
$var wire 1 ; q[4]~reg0feeder_combout $end
$var wire 1 < q[4]~reg0_regout $end
$var wire 1 = q[5]~reg0feeder_combout $end
$var wire 1 > q[5]~reg0_regout $end
$var wire 1 ? q[6]~reg0feeder_combout $end
$var wire 1 @ q[6]~reg0_regout $end
$var wire 1 A q[7]~reg0feeder_combout $end
$var wire 1 B q[7]~reg0_regout $end
$var wire 1 C d~combout [7] $end
$var wire 1 D d~combout [6] $end
$var wire 1 E d~combout [5] $end
$var wire 1 F d~combout [4] $end
$var wire 1 G d~combout [3] $end
$var wire 1 H d~combout [2] $end
$var wire 1 I d~combout [1] $end
$var wire 1 J d~combout [0] $end
$upscope $end
$upscope $end
$enddefinitions $end
#0
$dumpvars
0!
b1111100 "
1#
0+
0*
0)
0(
0'
0&
0%
0$
x,
0-
1.
x/
10
11
12
03
04
15
06
07
08
09
0:
1;
0<
1=
0>
1?
0@
0A
0B
0J
0I
1H
1G
1F
1E
1D
0C
$end
#5000
b1111000 "
0#
0H
05
0,
#10000
b1111010 "
b1111011 "
b1111111 "
1J
1I
1H
1,
17
#15000
1!
b1011111 "
13
0E
14
0,
0=
#20000
b11011111 "
b11001111 "
1#
b11001101 "
b11001100 "
b11001000 "
0!
b11101000 "
0J
0I
0H
0F
1E
1C
15
03
04
1,
07
0;
1=
1A
#25000
b1101000 "
b1101010 "
b1001010 "
1I
0E
0C
0,
17
0=
0A
#30000
b1000010 "
b1010010 "
0#
b1010011 "
b1010111 "
b11010111 "
1J
1H
0G
1F
1C
05
1,
1;
1A
#35000
1!
b11010101 "
b11110101 "
b11111101 "
b11111100 "
13
0J
0I
1G
1E
14
0,
07
1=
#40000
1#
b11011100 "
15
0E
1,
0=
#45000
b11001100 "
0!
b11001110 "
b11001111 "
0#
b11101111 "
1J
1I
0F
1E
03
05
04
0,
17
0;
1=
#50000
b10101111 "
b10101011 "
b101011 "
1#
b1011 "
0H
0E
0D
0C
15
1,
0=
0?
0A
#55000
b11 "
1!
b10 "
b110 "
0#
b100110 "
0J
1H
0G
1E
13
05
14
0,
1=
#60000
b110110 "
b10110110 "
0!
b10110111 "
1J
1F
1C
03
04
1,
1;
1A
#65000
b10110101 "
b10110001 "
1#
b110001 "
1!
0I
0H
0C
15
13
14
0,
07
0A
1B
1>
1<
18
16
1$
1&
1'
1*
1+
#70000
b100001 "
b100000 "
0#
b10100000 "
0!
0J
0F
1C
05
03
04
1,
0;
1A
#75000
b10100100 "
1#
b100100 "
1H
0C
15
0,
0A
#80000
b100 "
b101 "
0#
1J
0E
05
1,
0=
#85000
b111 "
b10111 "
b10011 "
1I
0H
1F
0,
17
1;
#90000
b1010011 "
b1010010 "
1#
b1000010 "
b1000110 "
0J
1H
0F
1D
15
1,
0;
1?
#95000
b1000100 "
b100 "
b0 "
0I
0H
0D
0,
07
0?
#100000
1!
b10000000 "
b10100000 "
b10100001 "
0#
b10100011 "
b10100111 "
13
1J
1I
1H
1E
1C
05
14
1,
17
1=
1A
#105000
b10101111 "
b10111111 "
b10011111 "
b10011110 "
0J
1G
1F
0E
0,
1;
0=
#110000
b11011110 "
1#
b11011100 "
b11010100 "
0I
0G
1D
15
1,
07
1?
#115000
0!
b1010100 "
b10100 "
0#
b10110 "
b11110 "
03
1I
1G
0D
0C
05
04
0,
17
0?
0A
#120000
b1110 "
b1111 "
1!
1#
1J
0F
13
15
14
1,
0;
0B
0>
1:
19
0$
0&
1(
1)
#125000
b10001111 "
b11001111 "
b11011111 "
1F
1D
1C
0,
1;
1?
1A
#130000
b11011011 "
b11011001 "
0!
b10011001 "
0I
0H
0D
03
04
1,
07
0?
#135000
b10011000 "
0#
1!
0J
05
13
14
0,
#140000
b10010000 "
b10000 "
b10010 "
b1010010 "
b1010011 "
1J
1I
0G
1D
0C
1,
17
1?
0A
#145000
b1110011 "
b1110111 "
1#
0!
b1111111 "
b11111111 "
b11111101 "
b10111101 "
0I
1H
1G
1E
0D
1C
15
03
04
0,
07
1=
0?
1A
#150000
b10101101 "
b10101100 "
0#
b10100100 "
b11100100 "
0J
0G
0F
1D
05
1,
0;
1?
#155000
1!
b1100100 "
b1100110 "
b1110110 "
b1110111 "
b1111111 "
b111111 "
13
1J
1I
1G
1F
0D
0C
14
0,
17
1;
0?
0A
#160000
1#
b10111111 "
b11111111 "
15
1D
1C
1,
1?
1A
#165000
b11011111 "
0!
b11001111 "
b11001110 "
b1001110 "
b1110 "
0J
0F
0E
0D
0C
03
04
0,
0;
0=
0?
0A
#170000
b110 "
0#
b100110 "
1!
b110110 "
b10110110 "
0G
1F
1E
1C
05
13
14
1,
1;
1=
1A
#175000
b10110100 "
b10110101 "
b11110101 "
b11111101 "
1#
1J
0I
1G
1D
15
0,
07
1?
#180000
b11011101 "
b1011101 "
b1011100 "
0#
0J
0E
0C
05
1,
0=
0A
#185000
b1001100 "
b1001110 "
b11001110 "
b11001111 "
1#
1J
1I
0F
1C
15
0,
17
0;
1A
#190000
b11001011 "
b11011011 "
b11011001 "
b1011001 "
0I
0H
1F
0C
1,
07
1;
0A
#195000
0!
b1010001 "
b1010000 "
0#
b1000000 "
b11000000 "
03
0J
0G
0F
1C
05
04
0,
0;
1A
#200000
b10000000 "
b10100000 "
b10100010 "
b10101010 "
b10101011 "
1J
1I
1G
1E
0D
1,
17
1=
0?
#205000
b10101111 "
1#
b101111 "
b1101111 "
b1001111 "
1H
0E
1D
0C
15
0,
0=
1?
0A
#210000
b1011111 "
b1010111 "
b1010011 "
0#
0H
0G
1F
05
1,
1;
#215000
1!
b1010001 "
b11010001 "
b10010001 "
b10011001 "
b10011101 "
13
0I
1H
1G
0D
1C
14
0,
07
0?
1A
#220000
b10011100 "
b10111100 "
0!
b10111110 "
0J
1I
1E
03
04
1,
17
1=
#225000
1#
b111110 "
b11110 "
1!
b11100 "
15
0I
0E
0C
13
14
0,
07
0=
0A
1B
1>
06
1$
1&
0+
#230000
b1100 "
b1101 "
b10001101 "
0!
b10001111 "
1J
1I
0F
1C
03
04
1,
17
0;
1A
#235000
0#
b10101111 "
b10101110 "
05
0J
1E
0,
1=
#240000
b10111110 "
1!
1#
1F
13
15
14
1,
1;
0<
0'
#245000
b111110 "
b111100 "
b11100 "
b11101 "
0!
0#
1J
0I
0E
0C
03
05
04
0,
07
0=
0A
#250000
b1011101 "
b11011101 "
b11111101 "
1E
1D
1C
1,
1=
1?
1A
#255000
1!
b10111101 "
b111101 "
b11101 "
13
0E
0D
0C
14
0,
0=
0?
0A
#260000
b1101 "
b1100 "
b1001100 "
b11001100 "
0J
0F
1D
1C
1,
0;
1?
1A
#265000
0!
b10001100 "
03
0D
04
0,
0?
#270000
b10000100 "
b100 "
0G
0C
1,
0A
#275000
b110 "
1#
b100110 "
b110110 "
b110111 "
1!
b1110111 "
1J
1I
1F
1E
1D
15
13
14
0,
17
1;
1=
1?
0B
0>
0:
08
16
0$
0&
0(
0*
1+
#280000
b1110011 "
b1111011 "
b11111011 "
b11111001 "
0#
b11011001 "
b11001001 "
b10001001 "
0I
0H
1G
0F
0E
0D
1C
05
1,
07
0;
0=
0?
1A
#285000
b10001101 "
b1101 "
b11101 "
b1011101 "
1H
1F
1D
0C
0,
1;
1?
0A
#290000
b1011100 "
0!
b1011110 "
1#
b1011010 "
b1001010 "
b1010 "
0J
1I
0H
0F
0D
03
15
04
1,
17
0;
0?
#295000
b10 "
b100010 "
1!
b100000 "
0#
b100100 "
b110100 "
b1110100 "
0I
1H
0G
1F
1E
1D
13
05
14
0,
07
1;
1=
1?
#300000
b11110100 "
1C
1,
1A
#305000
b11110101 "
b11111101 "
b11111001 "
b10111001 "
1J
0H
1G
0D
0,
0?
#310000
b10101001 "
b101001 "
b100001 "
0G
0F
0C
1,
0;
0A
#315000
b1 "
b11 "
1#
b10 "
b10010 "
0J
1I
1F
0E
15
0,
17
1;
0=
#320000
0!
b10110 "
b10010110 "
b10011110 "
b10111110 "
b10101110 "
03
1H
1G
0F
1E
1C
04
1,
0;
1=
1A
#325000
b11101110 "
b11101111 "
1!
b1101111 "
1J
1D
0C
13
14
0,
1?
0A
1B
1>
1:
18
1$
1&
1(
1*
#330000
b1101101 "
b1101001 "
b1111001 "
b111001 "
b111000 "
0!
b10111000 "
0J
0I
0H
1F
0D
1C
03
04
1,
07
1;
0?
1A
#335000
0#
b10011000 "
b10011010 "
b11011010 "
1!
05
1I
0E
1D
13
14
0,
17
0=
1?
#340000
b11010010 "
b11010110 "
b11000110 "
b1000110 "
b1100110 "
b1100100 "
b100100 "
0!
0I
1H
0G
0F
1E
0D
0C
03
04
1,
07
0;
1=
0?
0A
#345000
1#
b101100 "
b111100 "
b11100 "
b11110 "
b1011110 "
1!
15
1I
1G
1F
0E
1D
13
14
0,
17
1;
0=
1?
0B
08
06
0$
0*
0+
#350000
b1011010 "
b11011010 "
0#
b11111010 "
b11111000 "
0!
0I
0H
1E
1C
05
03
04
1,
07
1=
1A
#355000
b11110000 "
b11110100 "
b1110100 "
b1110110 "
1I
1H
0G
0C
0,
17
0A
#360000
b110110 "
b111110 "
b111100 "
0I
1G
0D
1,
07
0?
#365000
b111101 "
b101101 "
1#
b1101 "
b1001101 "
b1000101 "
1J
0G
0F
0E
1D
15
0,
0;
0=
1?
#370000
b1000001 "
b1000011 "
b1000010 "
b1010010 "
0#
b1110010 "
0J
1I
0H
1F
1E
05
1,
17
1;
1=
#375000
1!
b11110010 "
b10110010 "
b10111010 "
b10111000 "
b10111001 "
1#
b10011001 "
13
1J
0I
1G
0E
0D
1C
15
14
0,
07
0=
0?
1A
1@
1<
09
18
16
1%
1'
0)
1*
1+
#380000
b11011001 "
b11010001 "
b11010011 "
0#
1I
0G
1D
05
1,
17
1?
#385000
b11010111 "
b11000111 "
0!
b1000111 "
b1000110 "
b1100110 "
b1101110 "
b1101100 "
1#
0J
0I
1H
1G
0F
1E
0C
03
15
04
0,
07
0;
1=
0A
#390000
b1101000 "
b1111000 "
1!
b11111000 "
b11111001 "
b11011001 "
1J
0H
1F
0E
1C
13
14
1,
1;
0=
1A
0<
08
0'
0*
#395000
b10011001 "
0#
b10001001 "
b1001 "
b101001 "
0F
1E
0D
0C
05
0,
0;
1=
0?
0A
#400000
b100001 "
b100011 "
b100111 "
b111 "
1I
1H
0G
0E
1,
17
0=
#405000
0!
b110 "
b10000110 "
b10001110 "
b10001100 "
03
0J
0I
1G
1C
04
0,
07
1A
#410000
b11001100 "
b11011100 "
b11011000 "
b11111000 "
b1111000 "
b1111010 "
1I
0H
1F
1E
1D
0C
1,
17
1;
1=
1?
0A
#415000
1#
b1101010 "
15
0F
0,
0;
#420000
b1100010 "
b1100110 "
b1000110 "
b11000110 "
b11000100 "
0#
b11010100 "
0I
1H
0G
1F
0E
1C
05
1,
07
1;
0=
1A
#425000
b11011100 "
b1011100 "
b1011110 "
1I
1G
0C
0,
17
0A
#430000
b1011111 "
b1011011 "
1#
b11011011 "
1J
0H
1C
15
1,
1A
#435000
1!
b10011011 "
b10001011 "
b10001010 "
b10001110 "
0#
13
0J
1H
0F
0D
05
14
0,
0;
0?
#440000
b10101110 "
b10100110 "
b10100100 "
b10100101 "
b10100001 "
1#
1J
0I
0H
0G
1E
15
1,
07
1=
#445000
b11100001 "
b11101001 "
b11101101 "
1H
1G
1D
0,
1?
#450000
b1101101 "
0!
b1001101 "
b1001111 "
b1111 "
b1011 "
1I
0H
0E
0D
0C
03
04
1,
17
0=
0?
0A
#455000
1!
b1001 "
b1001001 "
b1001101 "
13
0I
1H
1D
14
0,
07
1?
0@
0>
19
18
0%
0&
1)
1*
#460000
b1000101 "
b11000101 "
b11100101 "
0!
b11100111 "
1I
0G
1E
1C
03
04
1,
17
1=
1A
#465000
b11110111 "
b11110110 "
0#
b10110110 "
b10110010 "
b10111010 "
b111010 "
1!
0J
0H
1G
1F
0D
0C
05
13
14
0,
1;
0?
0A
#470000
b11010 "
b11000 "
b1000 "
b1001 "
1#
b1 "
b10000001 "
1J
0I
0G
0F
0E
1C
15
1,
07
0;
0=
1A
#475000
b10000101 "
0!
b10100101 "
b10100111 "
b10110111 "
0#
b10111111 "
b111111 "
1I
1H
1G
1F
1E
0C
03
05
04
0,
17
1;
1=
0A
#480000
b1111111 "
b1011111 "
b1011101 "
1#
b1010101 "
0I
0G
0E
1D
15
1,
07
0=
1?
#485000
b1010001 "
1!
b1000001 "
b1 "
b100001 "
b100011 "
0#
b101011 "
1I
0H
1G
0F
1E
0D
13
05
14
0,
17
0;
1=
0?
#490000
b101111 "
b111111 "
b1111111 "
b1111101 "
0I
1H
1F
1D
1,
07
1;
1?
#495000
0!
b1011101 "
1#
b1010101 "
03
0G
0E
15
04
0,
0=
#500000
b11010101 "
b11000101 "
b10000101 "
b10000111 "
b10100111 "
1I
0F
1E
0D
1C
1,
17
0;
1=
0?
1A
#505000
1!
b10101111 "
b101111 "
b111111 "
b1111111 "
b1111101 "
13
0I
1G
1F
1D
0C
14
0,
07
1;
1?
0A
1B
1>
1$
1&
#510000
b1111100 "
b1111000 "
0!
b1110000 "
b1110010 "
0J
1I
0H
0G
03
04
1,
17
#515000
b1010010 "
b11010010 "
b10010010 "
1!
b10011010 "
1G
0E
0D
1C
13
14
0,
0=
0?
1A
0B
1@
1<
09
06
0$
1%
1'
0)
0+
#520000
b10001010 "
b10001011 "
b10001001 "
b10101001 "
b10100001 "
1J
0I
0G
0F
1E
1,
07
0;
1=
#525000
0#
b10100101 "
b100101 "
b1100101 "
b1000101 "
b1001101 "
05
1H
1G
0E
1D
0C
0,
0=
1?
0A
#530000
b1001100 "
b1001110 "
1#
b1001010 "
b11001010 "
b10001010 "
b10101010 "
0J
1I
0H
1E
0D
1C
15
1,
17
1=
0?
1A
#535000
b10111010 "
b10110010 "
b10110011 "
0#
b10110111 "
b10010111 "
1J
1H
0G
1F
0E
05
0,
1;
0=
#540000
b10111 "
b111 "
1#
b100111 "
0F
1E
0C
15
1,
0;
1=
0A
#545000
b1100111 "
b1101111 "
b1101110 "
b1101010 "
b1111010 "
b1011010 "
0J
0H
1G
1F
0E
1D
0,
1;
0=
1?
#550000
0!
b11011010 "
0#
b11010010 "
b11010011 "
b11010111 "
b11110111 "
03
1J
1H
0G
1E
1C
05
04
1,
1=
1A
#555000
b10110111 "
1#
b10111111 "
b10111110 "
b10011110 "
0J
1G
0E
0D
15
0,
0=
0?
#560000
b10001110 "
b1110 "
b1010 "
b1001010 "
b1000010 "
b1000011 "
1J
0H
0G
0F
1D
0C
1,
0;
1?
0A
#565000
b1010011 "
b11010011 "
b11010111 "
b10010111 "
1H
1F
0D
1C
0,
1;
0?
1A
#570000
b10010101 "
b10000101 "
b10000001 "
b11000001 "
0I
0H
0F
1D
1,
07
0;
1?
#575000
0#
b11100001 "
b11100000 "
b1100000 "
b1100010 "
05
0J
1I
1E
0C
0,
17
1=
0A
#580000
b100010 "
b10 "
b10000010 "
0E
0D
1C
1,
0=
0?
1A
#585000
1!
b10001010 "
b10001000 "
13
0I
1G
14
0,
07
#590000
b10001100 "
1#
b10001101 "
0!
b10000101 "
b10000111 "
1J
1I
1H
0G
15
03
04
1,
17
#595000
b10100111 "
b100111 "
1!
b101111 "
1G
1E
0C
13
14
0,
1=
0A
1B
0@
0>
0<
19
16
1$
0%
0&
0'
1)
1+
#600000
b1101111 "
0#
b1101101 "
b1001101 "
b11001101 "
0!
0I
0E
1D
1C
05
03
04
1,
07
0=
1?
1A
#605000
b10001101 "
1#
b10101101 "
1!
1E
0D
15
13
14
0,
1=
0?
1@
08
1%
0*
#610000
b10101100 "
0#
b10001100 "
0J
0E
05
1,
0=
#615000
b10001000 "
b10000000 "
b10000010 "
0!
b10100010 "
1I
0H
0G
1E
03
04
0,
17
1=
#620000
b10110010 "
b10110011 "
1#
b10111011 "
b10111001 "
b10011001 "
1J
0I
1G
1F
0E
15
1,
07
1;
0=
#625000
b11011001 "
1!
b11011000 "
b11111000 "
0J
1E
1D
13
14
0,
1=
1?
0@
1<
09
06
0%
1'
0)
0+
#630000
b1111000 "
b1111100 "
b1101100 "
b1101110 "
0!
b1101111 "
1J
1I
1H
0F
0C
03
04
1,
17
0;
0A
#635000
b1100111 "
b100111 "
b100101 "
b100100 "
0J
0I
0G
0D
0,
07
0?
#640000
b10100100 "
b10100000 "
b10110000 "
1!
b10111000 "
b10111001 "
1J
0H
1G
1F
1C
13
14
1,
1;
1A
0B
1>
0<
16
0$
1&
0'
1+
#645000
0#
b10011001 "
b11011001 "
b11011101 "
b11001101 "
05
1H
0F
0E
1D
0,
0;
0=
1?
#650000
b11001111 "
b1001111 "
0!
b1000111 "
1#
b1100111 "
b1100011 "
1I
0H
0G
1E
0C
03
15
04
1,
17
1=
0A
#655000
b1100010 "
b1110010 "
1!
b1111010 "
0J
1G
1F
13
14
0,
1;
1@
18
06
1%
1*
0+
#660000
b111010 "
b111000 "
b11000 "
b1000 "
b0 "
0I
0G
0F
0E
0D
1,
07
0;
0=
0?
#665000
b10000000 "
b10000100 "
0!
b11000100 "
b11001100 "
1H
1G
1D
1C
03
04
0,
1?
1A
#670000
b11001110 "
b11101110 "
b11111110 "
b11111010 "
1!
b10111010 "
1I
0H
1F
1E
0D
13
14
1,
17
1;
1=
0?
1B
0>
08
1$
0&
0*
#675000
b10111011 "
b111011 "
b11011 "
b11111 "
1J
1H
0E
0C
0,
0=
0A
#680000
0#
b10111 "
b111 "
0!
b11 "
05
0H
0G
0F
03
04
1,
0;
#685000
b10 "
b10000010 "
b10100010 "
1#
b10110010 "
b10110110 "
0J
1H
1F
1E
1C
15
0,
1;
1=
1A
#690000
1!
b10110111 "
b110111 "
b10111 "
0#
13
1J
0E
0C
05
14
1,
0=
0A
#695000
b11111 "
b1111 "
b1011 "
0!
1#
0H
1G
0F
03
15
04
0,
0;
#700000
b10001011 "
b10101011 "
b10100011 "
b10110011 "
b10110111 "
1!
0#
1H
0G
1F
1E
1C
13
05
14
1,
1;
1=
1A
#705000
b10110101 "
b11110101 "
b11110001 "
1#
0I
0H
1D
15
0,
07
1?
#710000
b11110011 "
b10110011 "
1I
0D
1,
17
0?
#715000
b10110010 "
b110010 "
b111010 "
0J
1G
0C
0,
0A
#720000
b101010 "
b101110 "
0#
b101111 "
b10101111 "
1J
1H
0F
1C
05
1,
0;
1A
#725000
0!
b11101111 "
b11111111 "
b11111011 "
b11111010 "
b1111010 "
03
0J
0H
1F
1D
0C
04
0,
1;
1?
0A
#730000
b1011010 "
b1010010 "
1#
b10010 "
b10 "
b110 "
b111 "
b10000111 "
1J
1H
0G
0F
0E
0D
1C
15
1,
0;
0=
0?
1A
#735000
b10000101 "
b10100101 "
b10101101 "
0#
b11101101 "
0I
1G
1E
1D
05
0,
07
1=
1?
#740000
b11111101 "
b11111001 "
b11111000 "
b1111000 "
b1111010 "
b1110010 "
0J
1I
0H
0G
1F
0C
1,
17
1;
0A
#745000
b1100010 "
b1100110 "
b11100110 "
b11101110 "
1H
1G
0F
1C
0,
0;
1A
#750000
b11001110 "
1#
b10001110 "
b10001100 "
b10011100 "
b10011000 "
b11000 "
0I
0H
1F
0E
0D
0C
15
1,
07
1;
0=
0?
0A
#755000
b11001 "
b111001 "
0#
b1111001 "
b1111011 "
b1111111 "
b11111111 "
1J
1I
1H
1E
1D
1C
05
0,
17
1=
1?
1A
#760000
1!
b10111111 "
b10111011 "
13
0H
0D
14
1,
0?
#765000
b10110011 "
b10110010 "
b10010010 "
b10010 "
b1010010 "
0J
0G
0E
1D
0C
0,
0=
1?
0A
#770000
b1000010 "
1#
b1000000 "
b1000100 "
b1000101 "
b101 "
1J
0I
1H
0F
0D
15
1,
07
0;
0?
#775000
0!
b10101 "
0#
b10001 "
b10000 "
b1010000 "
03
0J
0H
1F
1D
05
04
0,
1;
1?
#780000
b1011000 "
b1111000 "
b11111000 "
1!
b11101000 "
b11101001 "
b10101001 "
1J
1G
0F
1E
0D
1C
13
14
1,
0;
1=
0?
1A
#785000
b10101101 "
0!
b10111101 "
b10111100 "
b11111100 "
0J
1H
1F
1D
03
04
0,
1;
1?
#790000
b11111110 "
b11011110 "
b11011010 "
1!
b11011011 "
1J
1I
0H
0E
13
14
1,
17
0=
#795000
1#
b11011001 "
b11111001 "
15
0I
1E
0,
07
1=
#800000
b11101001 "
b10101001 "
b10101000 "
0J
0F
0D
1,
0;
0?
#805000
b10100000 "
b100000 "
b100100 "
0!
0#
b100 "
b10100 "
b1010100 "
1H
0G
1F
0E
1D
0C
03
05
04
0,
1;
0=
1?
0A
#810000
b1010110 "
b1010010 "
b1110010 "
1I
0H
1E
1,
17
1=
#815000
b1110011 "
1!
b1100011 "
b100011 "
b100111 "
1J
1H
0F
0D
13
14
0,
0;
0?
#820000
b10100111 "
b10100101 "
b10000101 "
b10000100 "
0!
b10010100 "
0J
0I
1F
0E
1C
03
04
1,
07
1;
0=
1A
#825000
1#
b11010100 "
b11010000 "
b11110000 "
b11110001 "
1!
15
1J
0H
1E
1D
13
14
0,
1=
1?
0@
1<
0:
16
0%
1'
0(
1+
#830000
b1110001 "
b110001 "
0D
0C
1,
0?
0A
#835000
b111001 "
b111000 "
0!
b10111000 "
b11111000 "
0J
1G
1D
1C
03
04
0,
1?
1A
#840000
b11101000 "
0#
b11101100 "
b11100100 "
1!
b10100100 "
1H
0G
0F
0D
05
13
14
1,
0;
0?
#845000
b10100110 "
b10000110 "
1#
b10000010 "
b11000010 "
1I
0H
0E
1D
15
0,
17
0=
1?
#850000
b11000011 "
b11001011 "
b11001001 "
b11001101 "
1J
0I
1H
1G
1,
07
#855000
b1001101 "
0!
b1000101 "
b1000111 "
1I
0G
0C
03
04
0,
17
0A
#860000
b1010111 "
b1110111 "
b110111 "
b110110 "
b110010 "
b10110010 "
1!
b10111010 "
b10111000 "
0J
0I
0H
1G
1F
1E
0D
1C
13
14
1,
07
1;
1=
0?
1A
0B
1@
0<
1:
18
06
0$
1%
0'
1(
1*
0+
#865000
b10011000 "
b10011001 "
b11001 "
0!
b10001 "
b10011 "
1J
1I
0G
0E
0C
03
04
0,
17
0=
0A
#870000
b11 "
b100011 "
b10100011 "
b10101011 "
b10101001 "
0I
1G
0F
1E
1C
1,
07
0;
1=
1A
#875000
b11101001 "
b11101101 "
b11001101 "
b1001101 "
1H
0E
1D
0C
0,
0=
1?
0A
#880000
b1001100 "
1!
b1011100 "
b1010100 "
b1010110 "
b10110 "
0J
1I
0G
1F
0D
13
14
1,
17
1;
0?
0:
19
08
0(
1)
0*
#885000
b10010 "
b10010010 "
b10010000 "
0I
0H
1C
0,
07
1A
#890000
b10110000 "
b10110001 "
0!
b11110001 "
b1110001 "
1J
1E
1D
0C
03
04
1,
1=
1?
0A
#895000
0#
b1100001 "
b1100011 "
b1000011 "
05
1I
0F
0E
0,
17
0;
0=
#900000
b1000111 "
b1010111 "
1H
1F
1,
1;
#905000
b1011111 "
1!
b11111 "
1#
b11101 "
b1101 "
0I
1G
0F
0D
13
15
14
0,
07
0;
0?
1<
1:
18
16
1'
1(
1*
1+
#910000
b10001101 "
0!
b11001101 "
0#
b11011101 "
1F
1D
1C
03
05
04
1,
1;
1?
1A
#915000
b11011001 "
b11011011 "
1#
b11001011 "
1I
0H
0F
15
0,
17
0;
#920000
b11000011 "
1!
b11010011 "
0G
1F
13
14
1,
1;
1B
0<
0:
09
1$
0'
0(
0)
#925000
b10010011 "
b10010111 "
0#
b10011111 "
b10001111 "
1H
1G
0F
0D
05
0,
0;
0?
#930000
b10001110 "
b10101110 "
b10101100 "
b11101100 "
b11101000 "
1#
b11100000 "
b11110000 "
0J
0I
0H
0G
1F
1E
1D
15
1,
07
1;
1=
1?
#935000
b11110010 "
b11110110 "
b11111110 "
b11101110 "
1I
1H
1G
0F
0,
17
0;
#940000
b1101110 "
b1001110 "
b1110 "
0#
b1100 "
b1000 "
b0 "
0I
0H
0G
0E
0D
0C
05
1,
07
0=
0?
0A
#945000
0!
b10000 "
b110000 "
b1110000 "
1#
b1111000 "
03
1G
1F
1E
1D
15
04
0,
1;
1=
1?
#950000
b1111001 "
b1111011 "
b1111111 "
b1011111 "
b1010111 "
1J
1I
1H
0G
0E
1,
17
0=
#955000
b11010111 "
b11000111 "
0#
b11000011 "
b11100011 "
0H
0F
1E
1C
05
0,
0;
1=
1A
#960000
1!
b10100011 "
b10100001 "
b10110001 "
1#
13
0I
1F
0D
15
14
1,
07
1;
0?
1>
1&
#965000
b10110000 "
b10111000 "
b10111100 "
b10011100 "
b11011100 "
b11011110 "
b11001110 "
0#
0J
1I
1H
1G
0F
0E
1D
05
0,
17
0;
0=
1?
#970000
b1001110 "
b1000110 "
b1000010 "
b1100010 "
0H
0G
1E
0C
1,
1=
0A
#975000
b100010 "
b100000 "
1#
b101000 "
b101100 "
b1100 "
0I
1H
1G
0E
0D
15
0,
07
0=
0?
#980000
0!
b10001100 "
b11001100 "
0#
b11000100 "
03
0G
1D
1C
05
04
1,
1?
1A
#985000
b11010100 "
b11010110 "
b11110110 "
1#
b11111110 "
1I
1G
1F
1E
15
0,
17
1;
1=
#990000
b11111111 "
b11111011 "
b1111011 "
b111011 "
b111001 "
0#
1J
0I
0H
0D
0C
05
1,
07
0?
0A
#995000
1!
b10111001 "
13
1C
14
0,
1A
